bench/formal.vcd
$comment Generated by Amaranth $end
$date 2025-04-18 17:23:51.466070 $end
$timescale 1 fs $end
$scope module bench $end
$scope module top $end
$var wire 1 ! clk $end
$var wire 1 " rst $end
$var wire 1 # bus__ack $end
$var wire 1 $ bus__ack$3 $end
$var wire 16 % bus__addr $end
$var wire 16 & bus__addr$5 $end
$var wire 1 ' bus__cycle $end
$var wire 1 ( bus__cycle$7 $end
$var wire 1 ) bus__err $end
$var wire 1 * bus__err$9 $end
$var wire 8 + bus__r $end
$var wire 8 , \bus__r.data $end
$var wire 8 - bus__r$11 $end
$var wire 8 . \bus__r$11.data $end
$var wire 4 / bus__sel $end
$var wire 4 0 bus__sel$13 $end
$var wire 1 1 bus__stb $end
$var wire 1 2 bus__stb$15 $end
$var wire 9 3 bus__w $end
$var wire 8 4 \bus__w.data $end
$var wire 1 5 \bus__w.enable $end
$var wire 9 6 bus__w$17 $end
$var wire 8 7 \bus__w$17.data $end
$var wire 1 8 \bus__w$17.enable $end
$var wire 1 9 alu__ack $end
$var wire 1 : bus__ack$19 $end
$var string 1 ; bus__code $end
$var string 1 < alu__code $end
$var wire 4 = alu__flags $end
$var wire 1 > \alu__flags.z $end
$var wire 1 ? \alu__flags.n $end
$var wire 1 @ \alu__flags.h $end
$var wire 1 A \alu__flags.c $end
$var wire 4 B bus__flags $end
$var wire 1 C \bus__flags.z $end
$var wire 1 D \bus__flags.n $end
$var wire 1 E \bus__flags.h $end
$var wire 1 F \bus__flags.c $end
$var string 1 G bus__mode $end
$var string 1 H alu__mode $end
$var wire 32 I bus__operand $end
$var wire 16 J \bus__operand[0] $end
$var wire 16 K \bus__operand[1] $end
$var wire 32 L alu__operand $end
$var wire 16 M \alu__operand[0] $end
$var wire 16 N \alu__operand[1] $end
$var wire 8 O alu__result $end
$var wire 8 P bus__result $end
$var wire 1 Q bus__stb$30 $end
$var wire 1 R alu__stb $end
$scope module alu $end
$var wire 1 ! clk $end
$var wire 1 " rst $end
$var wire 1 : bus__ack $end
$var string 1 ; bus__code $end
$var wire 4 B bus__flags $end
$var wire 1 C \bus__flags.z $end
$var wire 1 D \bus__flags.n $end
$var wire 1 E \bus__flags.h $end
$var wire 1 F \bus__flags.c $end
$var string 1 G bus__mode $end
$var wire 32 I bus__operand $end
$var wire 16 J \bus__operand[0] $end
$var wire 16 K \bus__operand[1] $end
$var wire 8 P bus__result $end
$var wire 1 Q bus__stb $end
$var wire 9 Z! result_short $end
$var wire 4 [! flag_reg $end
$var wire 1 \! \flag_reg.z $end
$var wire 1 ]! \flag_reg.n $end
$var wire 1 ^! \flag_reg.h $end
$var wire 1 _! \flag_reg.c $end
$upscope $end
$scope module cpu $end
$var wire 1 ! clk $end
$var wire 1 " rst $end
$var wire 1 # bus__ack $end
$var wire 16 & bus__addr$46 $end
$var wire 1 ( bus__cycle$45 $end
$var wire 8 + bus__r $end
$var wire 8 , \bus__r.data $end
$var wire 1 2 bus__stb$44 $end
$var wire 9 6 bus__w$47 $end
$var wire 8 7 \bus__w$47.data $end
$var wire 1 8 \bus__w$47.enable $end
$var wire 1 9 alu__ack $end
$var string 1 < alu__code $end
$var wire 32 L alu__operand $end
$var wire 16 M \alu__operand[0] $end
$var wire 16 N \alu__operand[1] $end
$var wire 8 O alu__result $end
$var wire 1 R alu__stb $end
$var wire 17 S debug__w $end
$var wire 16 T \debug__w.data $end
$var wire 1 U \debug__w.enable $end
$var wire 1 V debug__stb $end
$var wire 1 W debug__ack $end
$var wire 8 X debug__addr $end
$var wire 96 Y reg_data $end
$var wire 96 Z \reg_data.standard $end
$var wire 64 [ \reg_data.standard.short $end
$var wire 8 \ \reg_data.standard.short[0] $end
$var wire 8 ] \reg_data.standard.short[1] $end
$var wire 8 ^ \reg_data.standard.short[2] $end
$var wire 8 _ \reg_data.standard.short[3] $end
$var wire 8 ` \reg_data.standard.short[4] $end
$var wire 8 a \reg_data.standard.short[5] $end
$var wire 8 b \reg_data.standard.short[6] $end
$var wire 8 c \reg_data.standard.short[7] $end
$var wire 32 d \reg_data.standard.long $end
$var wire 16 e \reg_data.standard.long[0] $end
$var wire 16 f \reg_data.standard.long[1] $end
$var wire 96 g \reg_data.wide $end
$var wire 16 h \reg_data.wide[0] $end
$var wire 16 i \reg_data.wide[1] $end
$var wire 16 j \reg_data.wide[2] $end
$var wire 16 k \reg_data.wide[3] $end
$var wire 16 l \reg_data.wide[4] $end
$var wire 16 m \reg_data.wide[5] $end
$var wire 32 n command $end
$var wire 8 o \command.op $end
$var wire 32 p \command.arg $end
$var wire 8 q \command.arg[0] $end
$var wire 8 r \command.arg[1] $end
$var wire 8 s \command.arg[2] $end
$var wire 8 t \command.arg[3] $end
$var wire 1 u r_ready $end
$var wire 4 v arg_counter $end
$var wire 8 w r_data $end
$var string 1 x fsm_state $end
$var wire 1 y interrupt_latch $end
$var wire 1 z interrupt__stb $end
$var wire 4 { arg_length $end
$var wire 1 | interrupt_enable $end
$var wire 16 } a $end
$var wire 16 ~ b $end
$var wire 8 !! run_counter $end
$var wire 16 "! debug__r $end
$var wire 16 #! \debug__r.data $end
$var wire 1 $! bus__ack$24 $end
$var wire 1 %! program__ack $end
$var wire 16 &! program__addr $end
$var wire 16 '! bus__addr $end
$var wire 1 (! program__cycle $end
$var wire 1 )! bus__cycle $end
$var wire 1 *! bus__err $end
$var wire 1 +! program__err $end
$var wire 8 ,! bus__r$32 $end
$var wire 8 -! \bus__r$32.data $end
$var wire 8 .! program__r $end
$var wire 8 /! \program__r.data $end
$var wire 4 0! program__sel $end
$var wire 4 1! bus__sel $end
$var wire 1 2! program__stb $end
$var wire 1 3! bus__stb $end
$var wire 9 4! program__w $end
$var wire 8 5! \program__w.data $end
$var wire 1 6! \program__w.enable $end
$var wire 9 7! bus__w $end
$var wire 8 8! \bus__w.data $end
$var wire 1 9! \bus__w.enable $end
$var wire 16 :! addr $end
$var wire 1 ;! r_en $end
$var wire 1 <! clk_en $end
$var wire 1 =! interrupt__ack $end
$scope module program_async $end
$var wire 1 ! clk $end
$var wire 1 " rst $end
$var wire 1 u r_ready $end
$var wire 8 w r_data $end
$var wire 1 $! bus__ack $end
$var wire 16 '! bus__addr $end
$var wire 1 )! bus__cycle $end
$var wire 8 ,! bus__r $end
$var wire 8 -! \bus__r.data $end
$var wire 1 3! bus__stb $end
$var wire 9 7! bus__w $end
$var wire 8 8! \bus__w.data $end
$var wire 1 9! \bus__w.enable $end
$var wire 16 :! addr $end
$var wire 1 ;! r_en $end
$var wire 1 >! w_en $end
$var wire 1 ?! busy $end
$var wire 1 @! w_reg $end
$var wire 16 A! address_reg $end
$var wire 8 B! data_reg $end
$var wire 8 C! w_data $end
$var wire 1 D! w_done $end
$upscope $end
$upscope $end
$scope module mem $end
$var wire 1 ! clk $end
$var wire 1 " rst $end
$var wire 1 $ bus__ack $end
$var wire 16 % bus__addr $end
$var wire 1 ' bus__cycle $end
$var wire 8 - bus__r $end
$var wire 8 . \bus__r.data $end
$var wire 1 1 bus__stb $end
$var wire 9 3 bus__w $end
$var wire 8 4 \bus__w.data $end
$var wire 1 5 \bus__w.enable $end
$var wire 8 E! $signature__data $end
$var wire 8 F! $signature__addr $end
$var wire 1 G! $signature__en $end
$var wire 1 H! write_stb_last $end
$var wire 8 I! $signature__data$10 $end
$var wire 8 J! $signature__addr$11 $end
$var wire 1 K! read_valid $end
$var wire 1 L! $signature__en$13 $end
$var wire 8 M! verify__r $end
$var wire 8 N! \verify__r.data $end
$var wire 8 O! $signature__data$15 $end
$var wire 8 P! $signature__addr$16 $end
$var wire 16 Q! verify__addr $end
$var wire 9 R! verify__w $end
$var wire 8 S! \verify__w.data $end
$var wire 1 T! \verify__w.enable $end
$var wire 1 U! verify__ack $end
$var wire 1 V! read_valid$20 $end
$var wire 1 W! verify__stb $end
$var wire 1 X! $signature__en$22 $end
$var wire 1 Y! verify__cycle $end
$var wire 8 `! \buffer[0] $end
$var wire 8 a! \buffer[1] $end
$var wire 8 b! \buffer[2] $end
$var wire 8 c! \buffer[3] $end
$var wire 8 d! \buffer[4] $end
$var wire 8 e! \buffer[5] $end
$var wire 8 f! \buffer[6] $end
$var wire 8 g! \buffer[7] $end
$var wire 8 h! \buffer[8] $end
$var wire 8 i! \buffer[9] $end
$var wire 8 j! \buffer[10] $end
$var wire 8 k! \buffer[11] $end
$var wire 8 l! \buffer[12] $end
$var wire 8 m! \buffer[13] $end
$var wire 8 n! \buffer[14] $end
$var wire 8 o! \buffer[15] $end
$var wire 8 p! \buffer[16] $end
$var wire 8 q! \buffer[17] $end
$var wire 8 r! \buffer[18] $end
$var wire 8 s! \buffer[19] $end
$var wire 8 t! \buffer[20] $end
$var wire 8 u! \buffer[21] $end
$var wire 8 v! \buffer[22] $end
$var wire 8 w! \buffer[23] $end
$var wire 8 x! \buffer[24] $end
$var wire 8 y! \buffer[25] $end
$var wire 8 z! \buffer[26] $end
$var wire 8 {! \buffer[27] $end
$var wire 8 |! \buffer[28] $end
$var wire 8 }! \buffer[29] $end
$var wire 8 ~! \buffer[30] $end
$var wire 8 !" \buffer[31] $end
$var wire 8 "" \buffer[32] $end
$var wire 8 #" \buffer[33] $end
$var wire 8 $" \buffer[34] $end
$var wire 8 %" \buffer[35] $end
$var wire 8 &" \buffer[36] $end
$var wire 8 '" \buffer[37] $end
$var wire 8 (" \buffer[38] $end
$var wire 8 )" \buffer[39] $end
$var wire 8 *" \buffer[40] $end
$var wire 8 +" \buffer[41] $end
$var wire 8 ," \buffer[42] $end
$var wire 8 -" \buffer[43] $end
$var wire 8 ." \buffer[44] $end
$var wire 8 /" \buffer[45] $end
$var wire 8 0" \buffer[46] $end
$var wire 8 1" \buffer[47] $end
$var wire 8 2" \buffer[48] $end
$var wire 8 3" \buffer[49] $end
$var wire 8 4" \buffer[50] $end
$var wire 8 5" \buffer[51] $end
$var wire 8 6" \buffer[52] $end
$var wire 8 7" \buffer[53] $end
$var wire 8 8" \buffer[54] $end
$var wire 8 9" \buffer[55] $end
$var wire 8 :" \buffer[56] $end
$var wire 8 ;" \buffer[57] $end
$var wire 8 <" \buffer[58] $end
$var wire 8 =" \buffer[59] $end
$var wire 8 >" \buffer[60] $end
$var wire 8 ?" \buffer[61] $end
$var wire 8 @" \buffer[62] $end
$var wire 8 A" \buffer[63] $end
$var wire 8 B" \buffer[64] $end
$var wire 8 C" \buffer[65] $end
$var wire 8 D" \buffer[66] $end
$var wire 8 E" \buffer[67] $end
$var wire 8 F" \buffer[68] $end
$var wire 8 G" \buffer[69] $end
$var wire 8 H" \buffer[70] $end
$var wire 8 I" \buffer[71] $end
$var wire 8 J" \buffer[72] $end
$var wire 8 K" \buffer[73] $end
$var wire 8 L" \buffer[74] $end
$var wire 8 M" \buffer[75] $end
$var wire 8 N" \buffer[76] $end
$var wire 8 O" \buffer[77] $end
$var wire 8 P" \buffer[78] $end
$var wire 8 Q" \buffer[79] $end
$var wire 8 R" \buffer[80] $end
$var wire 8 S" \buffer[81] $end
$var wire 8 T" \buffer[82] $end
$var wire 8 U" \buffer[83] $end
$var wire 8 V" \buffer[84] $end
$var wire 8 W" \buffer[85] $end
$var wire 8 X" \buffer[86] $end
$var wire 8 Y" \buffer[87] $end
$var wire 8 Z" \buffer[88] $end
$var wire 8 [" \buffer[89] $end
$var wire 8 \" \buffer[90] $end
$var wire 8 ]" \buffer[91] $end
$var wire 8 ^" \buffer[92] $end
$var wire 8 _" \buffer[93] $end
$var wire 8 `" \buffer[94] $end
$var wire 8 a" \buffer[95] $end
$var wire 8 b" \buffer[96] $end
$var wire 8 c" \buffer[97] $end
$var wire 8 d" \buffer[98] $end
$var wire 8 e" \buffer[99] $end
$var wire 8 f" \buffer[100] $end
$var wire 8 g" \buffer[101] $end
$var wire 8 h" \buffer[102] $end
$var wire 8 i" \buffer[103] $end
$var wire 8 j" \buffer[104] $end
$var wire 8 k" \buffer[105] $end
$var wire 8 l" \buffer[106] $end
$var wire 8 m" \buffer[107] $end
$var wire 8 n" \buffer[108] $end
$var wire 8 o" \buffer[109] $end
$var wire 8 p" \buffer[110] $end
$var wire 8 q" \buffer[111] $end
$var wire 8 r" \buffer[112] $end
$var wire 8 s" \buffer[113] $end
$var wire 8 t" \buffer[114] $end
$var wire 8 u" \buffer[115] $end
$var wire 8 v" \buffer[116] $end
$var wire 8 w" \buffer[117] $end
$var wire 8 x" \buffer[118] $end
$var wire 8 y" \buffer[119] $end
$var wire 8 z" \buffer[120] $end
$var wire 8 {" \buffer[121] $end
$var wire 8 |" \buffer[122] $end
$var wire 8 }" \buffer[123] $end
$var wire 8 ~" \buffer[124] $end
$var wire 8 !# \buffer[125] $end
$var wire 8 "# \buffer[126] $end
$var wire 8 ## \buffer[127] $end
$var wire 8 $# \buffer[128] $end
$var wire 8 %# \buffer[129] $end
$var wire 8 &# \buffer[130] $end
$var wire 8 '# \buffer[131] $end
$var wire 8 (# \buffer[132] $end
$var wire 8 )# \buffer[133] $end
$var wire 8 *# \buffer[134] $end
$var wire 8 +# \buffer[135] $end
$var wire 8 ,# \buffer[136] $end
$var wire 8 -# \buffer[137] $end
$var wire 8 .# \buffer[138] $end
$var wire 8 /# \buffer[139] $end
$var wire 8 0# \buffer[140] $end
$var wire 8 1# \buffer[141] $end
$var wire 8 2# \buffer[142] $end
$var wire 8 3# \buffer[143] $end
$var wire 8 4# \buffer[144] $end
$var wire 8 5# \buffer[145] $end
$var wire 8 6# \buffer[146] $end
$var wire 8 7# \buffer[147] $end
$var wire 8 8# \buffer[148] $end
$var wire 8 9# \buffer[149] $end
$var wire 8 :# \buffer[150] $end
$var wire 8 ;# \buffer[151] $end
$var wire 8 <# \buffer[152] $end
$var wire 8 =# \buffer[153] $end
$var wire 8 ># \buffer[154] $end
$var wire 8 ?# \buffer[155] $end
$var wire 8 @# \buffer[156] $end
$var wire 8 A# \buffer[157] $end
$var wire 8 B# \buffer[158] $end
$var wire 8 C# \buffer[159] $end
$var wire 8 D# \buffer[160] $end
$var wire 8 E# \buffer[161] $end
$var wire 8 F# \buffer[162] $end
$var wire 8 G# \buffer[163] $end
$var wire 8 H# \buffer[164] $end
$var wire 8 I# \buffer[165] $end
$var wire 8 J# \buffer[166] $end
$var wire 8 K# \buffer[167] $end
$var wire 8 L# \buffer[168] $end
$var wire 8 M# \buffer[169] $end
$var wire 8 N# \buffer[170] $end
$var wire 8 O# \buffer[171] $end
$var wire 8 P# \buffer[172] $end
$var wire 8 Q# \buffer[173] $end
$var wire 8 R# \buffer[174] $end
$var wire 8 S# \buffer[175] $end
$var wire 8 T# \buffer[176] $end
$var wire 8 U# \buffer[177] $end
$var wire 8 V# \buffer[178] $end
$var wire 8 W# \buffer[179] $end
$var wire 8 X# \buffer[180] $end
$var wire 8 Y# \buffer[181] $end
$var wire 8 Z# \buffer[182] $end
$var wire 8 [# \buffer[183] $end
$var wire 8 \# \buffer[184] $end
$var wire 8 ]# \buffer[185] $end
$var wire 8 ^# \buffer[186] $end
$var wire 8 _# \buffer[187] $end
$var wire 8 `# \buffer[188] $end
$var wire 8 a# \buffer[189] $end
$var wire 8 b# \buffer[190] $end
$var wire 8 c# \buffer[191] $end
$var wire 8 d# \buffer[192] $end
$var wire 8 e# \buffer[193] $end
$var wire 8 f# \buffer[194] $end
$var wire 8 g# \buffer[195] $end
$var wire 8 h# \buffer[196] $end
$var wire 8 i# \buffer[197] $end
$var wire 8 j# \buffer[198] $end
$var wire 8 k# \buffer[199] $end
$var wire 8 l# \buffer[200] $end
$var wire 8 m# \buffer[201] $end
$var wire 8 n# \buffer[202] $end
$var wire 8 o# \buffer[203] $end
$var wire 8 p# \buffer[204] $end
$var wire 8 q# \buffer[205] $end
$var wire 8 r# \buffer[206] $end
$var wire 8 s# \buffer[207] $end
$var wire 8 t# \buffer[208] $end
$var wire 8 u# \buffer[209] $end
$var wire 8 v# \buffer[210] $end
$var wire 8 w# \buffer[211] $end
$var wire 8 x# \buffer[212] $end
$var wire 8 y# \buffer[213] $end
$var wire 8 z# \buffer[214] $end
$var wire 8 {# \buffer[215] $end
$var wire 8 |# \buffer[216] $end
$var wire 8 }# \buffer[217] $end
$var wire 8 ~# \buffer[218] $end
$var wire 8 !$ \buffer[219] $end
$var wire 8 "$ \buffer[220] $end
$var wire 8 #$ \buffer[221] $end
$var wire 8 $$ \buffer[222] $end
$var wire 8 %$ \buffer[223] $end
$var wire 8 &$ \buffer[224] $end
$var wire 8 '$ \buffer[225] $end
$var wire 8 ($ \buffer[226] $end
$var wire 8 )$ \buffer[227] $end
$var wire 8 *$ \buffer[228] $end
$var wire 8 +$ \buffer[229] $end
$var wire 8 ,$ \buffer[230] $end
$var wire 8 -$ \buffer[231] $end
$var wire 8 .$ \buffer[232] $end
$var wire 8 /$ \buffer[233] $end
$var wire 8 0$ \buffer[234] $end
$var wire 8 1$ \buffer[235] $end
$var wire 8 2$ \buffer[236] $end
$var wire 8 3$ \buffer[237] $end
$var wire 8 4$ \buffer[238] $end
$var wire 8 5$ \buffer[239] $end
$var wire 8 6$ \buffer[240] $end
$var wire 8 7$ \buffer[241] $end
$var wire 8 8$ \buffer[242] $end
$var wire 8 9$ \buffer[243] $end
$var wire 8 :$ \buffer[244] $end
$var wire 8 ;$ \buffer[245] $end
$var wire 8 <$ \buffer[246] $end
$var wire 8 =$ \buffer[247] $end
$var wire 8 >$ \buffer[248] $end
$var wire 8 ?$ \buffer[249] $end
$var wire 8 @$ \buffer[250] $end
$var wire 8 A$ \buffer[251] $end
$var wire 8 B$ \buffer[252] $end
$var wire 8 C$ \buffer[253] $end
$var wire 8 D$ \buffer[254] $end
$var wire 8 E$ \buffer[255] $end
$scope module buffer $end
$var wire 1 ! clk $end
$var wire 1 " rst $end
$var wire 8 E! $signature__data$9 $end
$var wire 8 F! $signature__addr$8 $end
$var wire 1 G! $signature__en$10 $end
$var wire 8 I! $signature__data $end
$var wire 8 J! $signature__addr $end
$var wire 1 L! $signature__en $end
$var wire 8 O! $signature__data$6 $end
$var wire 8 P! $signature__addr$5 $end
$var wire 1 X! $signature__en$7 $end
$upscope $end
$upscope $end
$upscope $end
$upscope $end
$enddefinitions $end
#0
$dumpvars
0!
0"
0#
0$
b0 %
b0 &
0'
0(
0)
0*
b0 +
b0 ,
b0 -
b0 .
b0 /
b0 0
01
02
b0 3
b0 4
05
b0 6
b0 7
08
09
0:
sAdd ;
sAdd <
b1 =
1>
0?
0@
0A
b1 B
1C
0D
0E
0F
sShort G
sShort H
b0 I
b0 J
b0 K
b0 L
b0 M
b0 N
b0 O
b0 P
0Q
0R
b10000000000000000 S
b0 T
1U
1V
0W
b0 X
b0 Y
b0 Z
b0 [
b0 \
b0 ]
b0 ^
b0 _
b0 `
b0 a
b0 b
b0 c
b0 d
b0 e
b0 f
b0 g
b0 h
b0 i
b0 j
b0 k
b0 l
b0 m
b0 n
b0 o
b0 p
b0 q
b0 r
b0 s
b0 t
0u
b0 v
b0 w
sfetch/0 x
0y
0z
b0 {
1|
b0 }
b0 ~
b0 !!
b0 "!
b0 #!
0$!
0%!
b0 &!
b0 '!
0(!
0)!
0*!
0+!
b0 ,!
b0 -!
b0 .!
b0 /!
b0 0!
b0 1!
02!
03!
b0 4!
b0 5!
06!
b0 7!
b0 8!
09!
b0 :!
0;!
0<!
0=!
0>!
0?!
0@!
b0 A!
b0 B!
b0 C!
0D!
b0 E!
b0 F!
0G!
0H!
b0 I!
b0 J!
0K!
0L!
b0 M!
b0 N!
b0 O!
b0 P!
b0 Q!
b0 R!
b0 S!
0T!
0U!
0V!
0W!
0X!
0Y!
b0 Z!
b0 [!
0\!
0]!
0^!
0_!
b0 `!
b1 a!
b10 b!
b11 c!
b100 d!
b101 e!
b110 f!
b111 g!
b1000 h!
b1001 i!
b1010 j!
b1011 k!
b1100 l!
b1101 m!
b1110 n!
b1111 o!
b10000 p!
b10001 q!
b10010 r!
b10011 s!
b10100 t!
b10101 u!
b10110 v!
b10111 w!
b11000 x!
b11001 y!
b11010 z!
b11011 {!
b11100 |!
b11101 }!
b11110 ~!
b11111 !"
b100000 ""
b100001 #"
b100010 $"
b100011 %"
b100100 &"
b100101 '"
b100110 ("
b100111 )"
b101000 *"
b101001 +"
b101010 ,"
b101011 -"
b101100 ."
b101101 /"
b101110 0"
b101111 1"
b110000 2"
b110001 3"
b110010 4"
b110011 5"
b110100 6"
b110101 7"
b110110 8"
b110111 9"
b111000 :"
b111001 ;"
b111010 <"
b111011 ="
b111100 >"
b111101 ?"
b111110 @"
b111111 A"
b1000000 B"
b1000001 C"
b1000010 D"
b1000011 E"
b1000100 F"
b1000101 G"
b1000110 H"
b1000111 I"
b1001000 J"
b1001001 K"
b1001010 L"
b1001011 M"
b1001100 N"
b1001101 O"
b1001110 P"
b1001111 Q"
b1010000 R"
b1010001 S"
b1010010 T"
b1010011 U"
b1010100 V"
b1010101 W"
b1010110 X"
b1010111 Y"
b1011000 Z"
b1011001 ["
b1011010 \"
b1011011 ]"
b1011100 ^"
b1011101 _"
b1011110 `"
b1011111 a"
b1100000 b"
b1100001 c"
b1100010 d"
b1100011 e"
b1100100 f"
b1100101 g"
b1100110 h"
b1100111 i"
b1101000 j"
b1101001 k"
b1101010 l"
b1101011 m"
b1101100 n"
b1101101 o"
b1101110 p"
b1101111 q"
b1110000 r"
b1110001 s"
b1110010 t"
b1110011 u"
b1110100 v"
b1110101 w"
b1110110 x"
b1110111 y"
b1111000 z"
b1111001 {"
b1111010 |"
b1111011 }"
b1111100 ~"
b1111101 !#
b1111110 "#
b1111111 ##
b10000000 $#
b10000001 %#
b10000010 &#
b10000011 '#
b10000100 (#
b10000101 )#
b10000110 *#
b10000111 +#
b10001000 ,#
b10001001 -#
b10001010 .#
b10001011 /#
b10001100 0#
b10001101 1#
b10001110 2#
b10001111 3#
b10010000 4#
b10010001 5#
b10010010 6#
b10010011 7#
b10010100 8#
b10010101 9#
b10010110 :#
b10010111 ;#
b10011000 <#
b10011001 =#
b10011010 >#
b10011011 ?#
b10011100 @#
b10011101 A#
b10011110 B#
b10011111 C#
b10100000 D#
b10100001 E#
b10100010 F#
b10100011 G#
b10100100 H#
b10100101 I#
b10100110 J#
b10100111 K#
b10101000 L#
b10101001 M#
b10101010 N#
b10101011 O#
b10101100 P#
b10101101 Q#
b10101110 R#
b10101111 S#
b10110000 T#
b10110001 U#
b10110010 V#
b10110011 W#
b10110100 X#
b10110101 Y#
b10110110 Z#
b10110111 [#
b10111000 \#
b10111001 ]#
b10111010 ^#
b10111011 _#
b10111100 `#
b10111101 a#
b10111110 b#
b10111111 c#
b11000000 d#
b11000001 e#
b11000010 f#
b11000011 g#
b11000100 h#
b11000101 i#
b11000110 j#
b11000111 k#
b11001000 l#
b11001001 m#
b11001010 n#
b11001011 o#
b11001100 p#
b11001101 q#
b11001110 r#
b11001111 s#
b11010000 t#
b11010001 u#
b11010010 v#
b11010011 w#
b11010100 x#
b11010101 y#
b11010110 z#
b11010111 {#
b11011000 |#
b11011001 }#
b11011010 ~#
b11011011 !$
b11011100 "$
b11011101 #$
b11011110 $$
b11011111 %$
b11100000 &$
b11100001 '$
b11100010 ($
b11100011 )$
b11100100 *$
b11100101 +$
b11100110 ,$
b11100111 -$
b11101000 .$
b11101001 /$
b11101010 0$
b11101011 1$
b11101100 2$
b11101101 3$
b11101110 4$
b11101111 5$
b11110000 6$
b11110001 7$
b11110010 8$
b11110011 9$
b11110100 :$
b11110101 ;$
b11110110 <$
b11110111 =$
b11111000 >$
b11111001 ?$
b11111010 @$
b11111011 A$
b11111100 B$
b11111101 C$
b11111110 D$
b11111111 E$
$end
#5000000
1!
1W
#10000000
0!
#15000000
1!
0W
0V
b0 S
0U
b1 X
b10000000000000000 S
1U
1V
#20000000
0!
#25000000
1!
1W
#30000000
0!
#35000000
1!
0W
0V
b0 S
0U
b10 X
b10000000000000000 S
1U
1V
#40000000
0!
#45000000
1!
1W
#50000000
0!
#55000000
1!
0W
0V
b0 S
0U
b11 X
b10000000000000000 S
1U
1V
#60000000
0!
#65000000
1!
1W
#70000000
0!
#75000000
1!
0W
0V
b0 S
0U
b100 X
b10000000000000000 S
1U
1V
#80000000
0!
#85000000
1!
1W
#90000000
0!
#95000000
1!
0W
0V
b0 S
0U
b101 X
b10000000000000000 S
1U
1V
#100000000
0!
#105000000
1!
1W
#110000000
0!
#115000000
1!
0W
0V
b0 S
0U
b11111111 S
b11111111 T
b110 X
b10000000011111111 S
1U
1V
#120000000
0!
#125000000
1!
1W
b11111111000000000000000000000000000000000000000000000000 Y
b11111111000000000000000000000000000000000000000000000000 Z
b11111111000000000000000000000000000000000000000000000000 [
b11111111 b
b11111111000000000000000000000000000000000000000000000000 g
b11111111 k
b11111111 "!
b11111111 #!
#130000000
0!
#135000000
1!
0W
0V
b11111111 S
0U
b111 X
b0 "!
b0 #!
b10000000011111111 S
1U
1V
#140000000
0!
#145000000
1!
1W
b1111111111111111000000000000000000000000000000000000000000000000 Y
b1111111111111111000000000000000000000000000000000000000000000000 Z
b1111111111111111000000000000000000000000000000000000000000000000 [
b11111111 c
b1111111111111111000000000000000000000000000000000000000000000000 g
b1111111111111111 k
b11111111 "!
b11111111 #!
#150000000
0!
#155000000
1!
0W
0V
b11111111 S
0U
b0 S
b0 T
b1000 X
b0 "!
b0 #!
b10000000000000000 S
1U
1V
#160000000
0!
#165000000
1!
1W
#170000000
0!
#175000000
1!
0W
0V
b0 S
0U
b1001 X
b10000000000000000 S
1U
1V
#180000000
0!
#185000000
1!
1W
#190000000
0!
#195000000
1!
0W
0V
b0 S
0U
b100011 .!
b100011 /!
b100011 ,!
b100011 -!
1<!
1;!
13!
1)!
12!
1(!
1%!
1$!
1u
b100011 w
#200000000
0!
#205000000
1!
b100011 n
b100011 o
b100011 p
b100011 q
b100000000000000001111111111111111000000000000000000000000000000000000000000000000 Y
b100000000000000001111111111111111000000000000000000000000000000000000000000000000 Z
b10000000000000000 d
b1 f
b100000000000000001111111111111111000000000000000000000000000000000000000000000000 g
b1 m
scheck/1 x
0;!
b1 "!
b1 #!
b1 :!
b1 '!
03!
0)!
b0 w
02!
b1 &!
0u
0(!
0%!
0$!
0<!
#210000000
0!
#215000000
1!
1y
sInc_R3|HL/22 x
b1111111111111111 }
#220000000
0!
#225000000
1!
sfetch/0 x
b100000000000000000000000000000000000000000000000000000000000000000000000000000000 Y
b100000000000000000000000000000000000000000000000000000000000000000000000000000000 Z
b0 [
b0 b
b0 c
b100000000000000000000000000000000000000000000000000000000000000000000000000000000 g
b0 k
#230000000
0!
#235000000
1!
#240000000
0!
#245000000
1!
b0 .!
b0 /!
b0 ,!
b0 -!
1<!
1;!
13!
1)!
12!
1(!
1%!
1$!
1u
#250000000
0!
#255000000
1!
b0 n
b0 o
b0 p
b0 q
b1000000000000000000000000000000000000000000000000000000000000000000000000000000000 Y
b1000000000000000000000000000000000000000000000000000000000000000000000000000000000 Z
b100000000000000000 d
b10 f
b1000000000000000000000000000000000000000000000000000000000000000000000000000000000 g
b10 m
scheck/1 x
0;!
b10 "!
b10 #!
b10 :!
b10 '!
03!
0)!
0u
02!
b10 &!
0(!
0%!
0$!
0<!
#260000000
0!
#265000000
1!
snoop/2 x
#270000000
0!
#275000000
1!
sfetch/0 x
#280000000
0!
#285000000
1!
#290000000
0!
#295000000
1!
b0 X
b0 "!
b0 #!
1V
#300000000
0!
#305000000
1!
1W
#310000000
0!
#315000000
1!
0W
0V
b1 X
1V
#320000000
0!
#325000000
1!
1W
#330000000
0!
#335000000
1!
0W
0V
b10 X
1V
#340000000
0!
#345000000
1!
1W
#350000000
0!
#355000000
1!
0W
0V
b11 X
1V
#360000000
0!
#365000000
1!
1W
#370000000
0!
#375000000
1!
0W
0V
b100 X
1V
#380000000
0!
#385000000
1!
1W
#390000000
0!
#395000000
1!
0W
0V
b101 X
1V
#400000000
0!
#405000000
1!
1W
#410000000
0!
#415000000
1!
0W
0V
b110 X
1V
#420000000
0!
#425000000
1!
1W
#430000000
0!
#435000000
1!
0W
0V
b111 X
1V
#440000000
0!
#445000000
1!
1W
#450000000
0!
#455000000
1!
0W
0V
b1000 X
1V
#460000000
0!
#465000000
1!
1W
#470000000
0!
#475000000
1!
0W
0V
b1001 X
b10 "!
b10 #!
1V
#480000000
0!
#485000000
1!
1W
#490000000
0!
#495000000
1!
0W
0V
