bench/tb_cpu_load_u8.vcd
$comment Generated by Amaranth $end
$date 2025-03-23 14:08:08.341535 $end
$timescale 1 fs $end
$scope module bench $end
$scope module top $end
$var wire 1 ! clk $end
$var wire 1 " rst $end
$var wire 1 # bus__ack $end
$var wire 1 $ bus__ack$3 $end
$var wire 16 % bus__addr $end
$var wire 16 & bus__addr$5 $end
$var wire 1 ' bus__cycle $end
$var wire 1 ( bus__cycle$7 $end
$var wire 1 ) bus__err $end
$var wire 1 * bus__err$9 $end
$var wire 8 + bus__r $end
$var wire 8 , \bus__r.data $end
$var wire 8 - bus__r$11 $end
$var wire 8 . \bus__r$11.data $end
$var wire 4 / bus__sel $end
$var wire 4 0 bus__sel$13 $end
$var wire 1 1 bus__stb $end
$var wire 1 2 bus__stb$15 $end
$var wire 9 3 bus__w $end
$var wire 8 4 \bus__w.data $end
$var wire 1 5 \bus__w.enable $end
$var wire 9 6 bus__w$17 $end
$var wire 8 7 \bus__w$17.data $end
$var wire 1 8 \bus__w$17.enable $end
$var wire 1 9 program__ack $end
$var wire 1 : bus__ack$19 $end
$var wire 16 ; bus__addr$20 $end
$var wire 16 < program__addr $end
$var wire 1 = bus__cycle$22 $end
$var wire 1 > program__cycle $end
$var wire 1 ? program__err $end
$var wire 1 @ bus__err$25 $end
$var wire 8 A program__r $end
$var wire 8 B \program__r.data $end
$var wire 8 C bus__r$27 $end
$var wire 8 D \bus__r$27.data $end
$var wire 4 E bus__sel$28 $end
$var wire 4 F program__sel $end
$var wire 1 G bus__stb$30 $end
$var wire 1 H program__stb $end
$var wire 9 I bus__w$32 $end
$var wire 8 J \bus__w$32.data $end
$var wire 1 K \bus__w$32.enable $end
$var wire 9 L program__w $end
$var wire 8 M \program__w.data $end
$var wire 1 N \program__w.enable $end
$scope module cpu $end
$var wire 1 ! clk $end
$var wire 1 " rst $end
$var wire 1 # bus__ack$32 $end
$var wire 16 & bus__addr$35 $end
$var wire 1 ( bus__cycle$37 $end
$var wire 1 ) bus__err$38 $end
$var wire 8 + bus__r$40 $end
$var wire 8 , \bus__r$40.data $end
$var wire 4 0 bus__sel$43 $end
$var wire 1 2 bus__stb$45 $end
$var wire 9 6 bus__w$47 $end
$var wire 8 7 \bus__w$47.data $end
$var wire 1 8 \bus__w$47.enable $end
$var wire 1 9 program__ack $end
$var wire 16 < program__addr $end
$var wire 1 > program__cycle $end
$var wire 1 ? program__err $end
$var wire 8 A program__r $end
$var wire 8 B \program__r.data $end
$var wire 4 F program__sel $end
$var wire 1 H program__stb $end
$var wire 9 L program__w $end
$var wire 8 M \program__w.data $end
$var wire 1 N \program__w.enable $end
$var wire 17 O debug__w $end
$var wire 16 P \debug__w.data $end
$var wire 1 Q \debug__w.enable $end
$var wire 1 R debug__stb $end
$var wire 1 S debug__ack $end
$var wire 8 T debug__addr $end
$var wire 96 U reg_data $end
$var wire 96 V \reg_data.standard $end
$var wire 64 W \reg_data.standard.short $end
$var wire 8 X \reg_data.standard.short[0] $end
$var wire 8 Y \reg_data.standard.short[1] $end
$var wire 8 Z \reg_data.standard.short[2] $end
$var wire 8 [ \reg_data.standard.short[3] $end
$var wire 8 \ \reg_data.standard.short[4] $end
$var wire 8 ] \reg_data.standard.short[5] $end
$var wire 8 ^ \reg_data.standard.short[6] $end
$var wire 8 _ \reg_data.standard.short[7] $end
$var wire 32 ` \reg_data.standard.long $end
$var wire 16 a \reg_data.standard.long[0] $end
$var wire 16 b \reg_data.standard.long[1] $end
$var wire 96 c \reg_data.wide $end
$var wire 16 d \reg_data.wide[0] $end
$var wire 16 e \reg_data.wide[1] $end
$var wire 16 f \reg_data.wide[2] $end
$var wire 16 g \reg_data.wide[3] $end
$var wire 16 h \reg_data.wide[4] $end
$var wire 16 i \reg_data.wide[5] $end
$var wire 32 j command $end
$var wire 8 k \command.op $end
$var wire 32 l \command.arg $end
$var wire 8 m \command.arg[0] $end
$var wire 8 n \command.arg[1] $end
$var wire 8 o \command.arg[2] $end
$var wire 8 p \command.arg[3] $end
$var wire 1 q inst_ready $end
$var wire 4 r arg_counter $end
$var wire 4 s arg_length $end
$var wire 1 t r_ready $end
$var wire 1 u command_ready $end
$var wire 8 v r_data $end
$var wire 8 w r_data$14 $end
$var wire 16 x debug__r $end
$var wire 16 y \debug__r.data $end
$var wire 1 z bus__ack $end
$var wire 16 { bus__addr $end
$var wire 1 | bus__cycle $end
$var wire 1 } bus__err $end
$var wire 8 ~ bus__r $end
$var wire 8 !! \bus__r.data $end
$var wire 4 "! bus__sel $end
$var wire 1 #! bus__stb $end
$var wire 9 $! bus__w $end
$var wire 8 %! \bus__w.data $end
$var wire 1 &! \bus__w.enable $end
$var wire 1 '! bus__ack$33 $end
$var wire 16 (! bus__addr$34 $end
$var wire 1 )! bus__cycle$36 $end
$var wire 1 *! bus__err$39 $end
$var wire 8 +! bus__r$41 $end
$var wire 8 ,! \bus__r$41.data $end
$var wire 4 -! bus__sel$42 $end
$var wire 1 .! bus__stb$44 $end
$var wire 9 /! bus__w$46 $end
$var wire 8 0! \bus__w$46.data $end
$var wire 1 1! \bus__w$46.enable $end
$var wire 4 2! cycle_length $end
$var wire 16 3! addr $end
$var wire 1 4! load_program $end
$var wire 1 5! r_en $end
$var wire 1 6! clk_en $end
$scope module program_bus $end
$var wire 1 ! clk $end
$var wire 1 " rst $end
$var wire 1 t r_ready $end
$var wire 8 v r_data $end
$var wire 1 z bus__ack $end
$var wire 16 { bus__addr $end
$var wire 1 | bus__cycle $end
$var wire 8 ~ bus__r $end
$var wire 8 !! \bus__r.data $end
$var wire 1 #! bus__stb $end
$var wire 9 $! bus__w $end
$var wire 8 %! \bus__w.data $end
$var wire 1 &! \bus__w.enable $end
$var wire 16 3! addr $end
$var wire 1 5! r_en $end
$var wire 1 7! w_en $end
$var wire 1 8! busy $end
$var wire 1 9! w_reg $end
$var wire 16 :! address_reg $end
$var wire 8 ;! data_reg $end
$var wire 8 <! w_data $end
$var wire 1 =! w_done $end
$upscope $end
$scope module ram_bus $end
$var wire 1 ! clk $end
$var wire 1 " rst $end
$var wire 8 w r_data $end
$var wire 1 '! bus__ack $end
$var wire 16 (! bus__addr $end
$var wire 1 )! bus__cycle $end
$var wire 8 +! bus__r $end
$var wire 8 ,! \bus__r.data $end
$var wire 1 .! bus__stb $end
$var wire 9 /! bus__w $end
$var wire 8 0! \bus__w.data $end
$var wire 1 1! \bus__w.enable $end
$var wire 1 >! w_en $end
$var wire 1 ?! r_en $end
$var wire 1 @! busy $end
$var wire 1 A! w_reg $end
$var wire 16 B! address_reg $end
$var wire 8 C! data_reg $end
$var wire 8 D! w_data $end
$var wire 16 E! addr $end
$var wire 1 F! w_done $end
$var wire 1 G! r_ready $end
$upscope $end
$upscope $end
$scope module mem $end
$var wire 1 ! clk $end
$var wire 1 " rst $end
$var wire 1 $ bus__ack $end
$var wire 16 % bus__addr $end
$var wire 1 ' bus__cycle $end
$var wire 8 - bus__r $end
$var wire 8 . \bus__r.data $end
$var wire 1 1 bus__stb $end
$var wire 9 3 bus__w $end
$var wire 8 4 \bus__w.data $end
$var wire 1 5 \bus__w.enable $end
$var wire 8 P! $signature__data $end
$var wire 6 Q! $signature__addr $end
$var wire 1 R! $signature__en $end
$var wire 1 S! write_stb_last $end
$var wire 8 T! $signature__data$10 $end
$var wire 6 U! $signature__addr$11 $end
$var wire 1 V! read_valid $end
$var wire 1 W! $signature__en$13 $end
$var wire 8 :" \buffer[0] $end
$var wire 8 ;" \buffer[1] $end
$var wire 8 <" \buffer[2] $end
$var wire 8 =" \buffer[3] $end
$var wire 8 >" \buffer[4] $end
$var wire 8 ?" \buffer[5] $end
$var wire 8 @" \buffer[6] $end
$var wire 8 A" \buffer[7] $end
$var wire 8 B" \buffer[8] $end
$var wire 8 C" \buffer[9] $end
$var wire 8 D" \buffer[10] $end
$var wire 8 E" \buffer[11] $end
$var wire 8 F" \buffer[12] $end
$var wire 8 G" \buffer[13] $end
$var wire 8 H" \buffer[14] $end
$var wire 8 I" \buffer[15] $end
$var wire 8 J" \buffer[16] $end
$var wire 8 K" \buffer[17] $end
$var wire 8 L" \buffer[18] $end
$var wire 8 M" \buffer[19] $end
$var wire 8 N" \buffer[20] $end
$var wire 8 O" \buffer[21] $end
$var wire 8 P" \buffer[22] $end
$var wire 8 Q" \buffer[23] $end
$var wire 8 R" \buffer[24] $end
$var wire 8 S" \buffer[25] $end
$var wire 8 T" \buffer[26] $end
$var wire 8 U" \buffer[27] $end
$var wire 8 V" \buffer[28] $end
$var wire 8 W" \buffer[29] $end
$var wire 8 X" \buffer[30] $end
$var wire 8 Y" \buffer[31] $end
$var wire 8 Z" \buffer[32] $end
$var wire 8 [" \buffer[33] $end
$var wire 8 \" \buffer[34] $end
$var wire 8 ]" \buffer[35] $end
$var wire 8 ^" \buffer[36] $end
$var wire 8 _" \buffer[37] $end
$var wire 8 `" \buffer[38] $end
$var wire 8 a" \buffer[39] $end
$var wire 8 b" \buffer[40] $end
$var wire 8 c" \buffer[41] $end
$var wire 8 d" \buffer[42] $end
$var wire 8 e" \buffer[43] $end
$var wire 8 f" \buffer[44] $end
$var wire 8 g" \buffer[45] $end
$var wire 8 h" \buffer[46] $end
$var wire 8 i" \buffer[47] $end
$var wire 8 j" \buffer[48] $end
$var wire 8 k" \buffer[49] $end
$var wire 8 l" \buffer[50] $end
$var wire 8 m" \buffer[51] $end
$var wire 8 n" \buffer[52] $end
$var wire 8 o" \buffer[53] $end
$var wire 8 p" \buffer[54] $end
$var wire 8 q" \buffer[55] $end
$var wire 8 r" \buffer[56] $end
$var wire 8 s" \buffer[57] $end
$var wire 8 t" \buffer[58] $end
$var wire 8 u" \buffer[59] $end
$var wire 8 v" \buffer[60] $end
$var wire 8 w" \buffer[61] $end
$var wire 8 x" \buffer[62] $end
$var wire 8 y" \buffer[63] $end
$scope module buffer $end
$var wire 1 ! clk $end
$var wire 1 " rst $end
$var wire 8 P! $signature__data$6 $end
$var wire 6 Q! $signature__addr$5 $end
$var wire 1 R! $signature__en$7 $end
$var wire 8 T! $signature__data $end
$var wire 6 U! $signature__addr $end
$var wire 1 W! $signature__en $end
$upscope $end
$upscope $end
$scope module prog_mem $end
$var wire 1 ! clk $end
$var wire 1 " rst $end
$var wire 1 : bus__ack $end
$var wire 16 ; bus__addr $end
$var wire 1 = bus__cycle $end
$var wire 8 C bus__r $end
$var wire 8 D \bus__r.data $end
$var wire 1 G bus__stb $end
$var wire 9 I bus__w $end
$var wire 8 J \bus__w.data $end
$var wire 1 K \bus__w.enable $end
$var wire 8 H! $signature__data $end
$var wire 6 I! $signature__addr $end
$var wire 1 J! $signature__en $end
$var wire 1 K! write_stb_last $end
$var wire 8 L! $signature__data$10 $end
$var wire 6 M! $signature__addr$11 $end
$var wire 1 N! read_valid $end
$var wire 1 O! $signature__en$13 $end
$var wire 8 X! \buffer[0] $end
$var wire 8 Y! \buffer[1] $end
$var wire 8 Z! \buffer[2] $end
$var wire 8 [! \buffer[3] $end
$var wire 8 \! \buffer[4] $end
$var wire 8 ]! \buffer[5] $end
$var wire 8 ^! \buffer[6] $end
$var wire 8 _! \buffer[7] $end
$var wire 8 `! \buffer[8] $end
$var wire 8 a! \buffer[9] $end
$var wire 8 b! \buffer[10] $end
$var wire 8 c! \buffer[11] $end
$var wire 8 d! \buffer[12] $end
$var wire 8 e! \buffer[13] $end
$var wire 8 f! \buffer[14] $end
$var wire 8 g! \buffer[15] $end
$var wire 8 h! \buffer[16] $end
$var wire 8 i! \buffer[17] $end
$var wire 8 j! \buffer[18] $end
$var wire 8 k! \buffer[19] $end
$var wire 8 l! \buffer[20] $end
$var wire 8 m! \buffer[21] $end
$var wire 8 n! \buffer[22] $end
$var wire 8 o! \buffer[23] $end
$var wire 8 p! \buffer[24] $end
$var wire 8 q! \buffer[25] $end
$var wire 8 r! \buffer[26] $end
$var wire 8 s! \buffer[27] $end
$var wire 8 t! \buffer[28] $end
$var wire 8 u! \buffer[29] $end
$var wire 8 v! \buffer[30] $end
$var wire 8 w! \buffer[31] $end
$var wire 8 x! \buffer[32] $end
$var wire 8 y! \buffer[33] $end
$var wire 8 z! \buffer[34] $end
$var wire 8 {! \buffer[35] $end
$var wire 8 |! \buffer[36] $end
$var wire 8 }! \buffer[37] $end
$var wire 8 ~! \buffer[38] $end
$var wire 8 !" \buffer[39] $end
$var wire 8 "" \buffer[40] $end
$var wire 8 #" \buffer[41] $end
$var wire 8 $" \buffer[42] $end
$var wire 8 %" \buffer[43] $end
$var wire 8 &" \buffer[44] $end
$var wire 8 '" \buffer[45] $end
$var wire 8 (" \buffer[46] $end
$var wire 8 )" \buffer[47] $end
$var wire 8 *" \buffer[48] $end
$var wire 8 +" \buffer[49] $end
$var wire 8 ," \buffer[50] $end
$var wire 8 -" \buffer[51] $end
$var wire 8 ." \buffer[52] $end
$var wire 8 /" \buffer[53] $end
$var wire 8 0" \buffer[54] $end
$var wire 8 1" \buffer[55] $end
$var wire 8 2" \buffer[56] $end
$var wire 8 3" \buffer[57] $end
$var wire 8 4" \buffer[58] $end
$var wire 8 5" \buffer[59] $end
$var wire 8 6" \buffer[60] $end
$var wire 8 7" \buffer[61] $end
$var wire 8 8" \buffer[62] $end
$var wire 8 9" \buffer[63] $end
$scope module buffer $end
$var wire 1 ! clk $end
$var wire 1 " rst $end
$var wire 8 H! $signature__data$6 $end
$var wire 6 I! $signature__addr$5 $end
$var wire 1 J! $signature__en$7 $end
$var wire 8 L! $signature__data $end
$var wire 6 M! $signature__addr $end
$var wire 1 O! $signature__en $end
$upscope $end
$upscope $end
$upscope $end
$upscope $end
$enddefinitions $end
#0
$dumpvars
0!
0"
0#
0$
b0 %
b0 &
0'
0(
0)
0*
b0 +
b0 ,
b0 -
b0 .
b0 /
b0 0
01
02
b0 3
b0 4
05
b0 6
b0 7
08
09
0:
b0 ;
b0 <
1=
1>
0?
0@
b0 A
b0 B
b0 C
b0 D
b0 E
b0 F
1G
1H
b0 I
b0 J
0K
b0 L
b0 M
0N
b0 O
b0 P
0Q
0R
0S
b0 T
b0 U
b0 V
b0 W
b0 X
b0 Y
b0 Z
b0 [
b0 \
b0 ]
b0 ^
b0 _
b0 `
b0 a
b0 b
b0 c
b0 d
b0 e
b0 f
b0 g
b0 h
b0 i
b0 j
b0 k
b0 l
b0 m
b0 n
b0 o
b0 p
0q
b0 r
b0 s
0t
0u
b0 v
b0 w
b0 x
b0 y
0z
b0 {
1|
0}
b0 ~
b0 !!
b0 "!
1#!
b0 $!
b0 %!
0&!
0'!
b0 (!
0)!
0*!
b0 +!
b0 ,!
b0 -!
0.!
b0 /!
b0 0!
01!
b0 2!
b0 3!
14!
15!
16!
07!
08!
09!
b0 :!
b0 ;!
b0 <!
0=!
0>!
0?!
0@!
0A!
b0 B!
b0 C!
b0 D!
b0 E!
0F!
0G!
b0 H!
b0 I!
0J!
0K!
b0 L!
b0 M!
0N!
1O!
b0 P!
b0 Q!
0R!
0S!
b0 T!
b0 U!
0V!
0W!
b110 X!
b1 Y!
b1110 Z!
b10 [!
b10110 \!
b11 ]!
b11110 ^!
b100 _!
b100110 `!
b101 a!
b101110 b!
b110 c!
b0 d!
b0 e!
b0 f!
b0 g!
b0 h!
b0 i!
b0 j!
b0 k!
b0 l!
b0 m!
b0 n!
b0 o!
b0 p!
b0 q!
b0 r!
b0 s!
b0 t!
b0 u!
b0 v!
b0 w!
b0 x!
b0 y!
b0 z!
b0 {!
b0 |!
b0 }!
b0 ~!
b0 !"
b0 ""
b0 #"
b0 $"
b0 %"
b0 &"
b0 '"
b0 ("
b0 )"
b0 *"
b0 +"
b0 ,"
b0 -"
b0 ."
b0 /"
b0 0"
b0 1"
b0 2"
b0 3"
b0 4"
b0 5"
b0 6"
b0 7"
b0 8"
b0 9"
b0 :"
b0 ;"
b0 <"
b0 ="
b0 >"
b0 ?"
b0 @"
b0 A"
b0 B"
b0 C"
b0 D"
b0 E"
b0 F"
b0 G"
b0 H"
b0 I"
b0 J"
b0 K"
b0 L"
b0 M"
b0 N"
b0 O"
b0 P"
b0 Q"
b0 R"
b0 S"
b0 T"
b0 U"
b0 V"
b0 W"
b0 X"
b0 Y"
b0 Z"
b0 ["
b0 \"
b0 ]"
b0 ^"
b0 _"
b0 `"
b0 a"
b0 b"
b0 c"
b0 d"
b0 e"
b0 f"
b0 g"
b0 h"
b0 i"
b0 j"
b0 k"
b0 l"
b0 m"
b0 n"
b0 o"
b0 p"
b0 q"
b0 r"
b0 s"
b0 t"
b0 u"
b0 v"
b0 w"
b0 x"
b0 y"
$end
#5000000
1!
18!
b110 L!
1N!
1K!
1:
b110 C
b110 D
19
b110 A
b110 B
0O!
1z
b110 ~
b110 !!
1t
b110 v
06!
05!
#10000000
0!
#15000000
1!
1q
b100000000000000000000000000000000000000000000000000000000000000000000000000000000 U
b100000000000000000000000000000000000000000000000000000000000000000000000000000000 V
b10000000000000000 `
b1 b
b100000000000000000000000000000000000000000000000000000000000000000000000000000000 c
b1 i
08!
0N!
b110 j
b110 k
b110 l
b110 m
b1 r
b1 s
0:
b1 2!
b1 3!
0#!
04!
0H
1O!
0|
0t
b1 {
14!
09
b0 v
b1 <
0G
0z
0>
0=
b1 ;
0O!
b1 I!
b1 M!
#20000000
0!
#25000000
1!
0K!
#30000000
0!
#35000000
1!
#40000000
0!
#45000000
1!
#50000000
0!
#55000000
1!
#60000000
0!
#65000000
1!
#70000000
0!
#75000000
1!
#80000000
0!
#85000000
1!
#90000000
0!
#95000000
1!
#100000000
0!
#105000000
1!
16!
15!
1#!
1|
1H
1G
1>
1=
1O!
#110000000
0!
#115000000
1!
18!
b1 L!
1N!
b1 :!
1K!
1:
b1 C
b1 D
19
b1 A
b1 B
0O!
1z
b1 ~
b1 !!
1t
b1 v
06!
05!
#120000000
0!
#125000000
1!
b1000000000000000000000000000000000000000000000000000000000000000000000000000000000 U
b1000000000000000000000000000000000000000000000000000000000000000000000000000000000 V
b100000000000000000 `
b10 b
b1000000000000000000000000000000000000000000000000000000000000000000000000000000000 c
b10 i
08!
0N!
b0 :!
b100000110 j
b100000110 l
b1 n
b10 r
0:
0#!
04!
b10 3!
0H
1O!
0|
0t
b10 {
09
b0 v
b10 <
0G
0z
0>
0=
b10 ;
0O!
b10 I!
b10 M!
#130000000
0!
#135000000
1!
1u
0K!
b0 r
14!
#140000000
0!
#145000000
1!
0u
b1000000000000000000000000000000000000000000000000000000001000000000000000000000000 U
b1000000000000000000000000000000000000000000000000000000001000000000000000000000000 V
b1000000000000000000000000 W
b1 [
b1000000000000000000000000000000000000000000000000000000001000000000000000000000000 c
b100000000 e
#150000000
0!
#155000000
1!
#160000000
0!
#165000000
1!
#170000000
0!
#175000000
1!
#180000000
0!
#185000000
1!
#190000000
0!
#195000000
1!
#200000000
0!
#205000000
1!
#210000000
0!
#215000000
1!
16!
15!
1#!
1|
1H
1G
1>
1=
1O!
#220000000
0!
#225000000
1!
18!
b1110 L!
1N!
b10 :!
1K!
1:
b1110 C
b1110 D
19
b1110 A
b1110 B
0O!
1z
b1110 ~
b1110 !!
1t
b1110 v
06!
05!
#230000000
0!
#235000000
1!
b1100000000000000000000000000000000000000000000000000000001000000000000000000000000 U
b1100000000000000000000000000000000000000000000000000000001000000000000000000000000 V
b110000000000000000 `
b11 b
b1100000000000000000000000000000000000000000000000000000001000000000000000000000000 c
b11 i
08!
0N!
b0 :!
b100001110 j
b1110 k
b100001110 l
b1110 m
b1 r
0:
0#!
b11 3!
0H
1O!
0|
0t
b11 {
09
b0 v
b11 <
0G
0z
0>
0=
b11 ;
0O!
b11 I!
b11 M!
#240000000
0!
#245000000
1!
0K!
#250000000
0!
#255000000
1!
#260000000
0!
#265000000
1!
#270000000
0!
#275000000
1!
#280000000
0!
#285000000
1!
#290000000
0!
#295000000
1!
#300000000
0!
#305000000
1!
#310000000
0!
#315000000
1!
#320000000
0!
#325000000
1!
16!
15!
1#!
1|
1H
1G
1>
1=
1O!
#330000000
0!
#335000000
1!
18!
b10 L!
1N!
b11 :!
1K!
1:
b10 C
b10 D
19
b10 A
b10 B
0O!
1z
b10 ~
b10 !!
1t
b10 v
06!
05!
#340000000
0!
#345000000
1!
b10000000000000000000000000000000000000000000000000000000001000000000000000000000000 U
b10000000000000000000000000000000000000000000000000000000001000000000000000000000000 V
b1000000000000000000 `
b100 b
b10000000000000000000000000000000000000000000000000000000001000000000000000000000000 c
b100 i
08!
0N!
b0 :!
b1000001110 j
b1000001110 l
b10 n
b10 r
0:
0#!
04!
b100 3!
0H
1O!
0|
0t
b100 {
09
b0 v
b100 <
0G
0z
0>
0=
b100 ;
0O!
b100 I!
b100 M!
#350000000
0!
#355000000
1!
1u
0K!
b0 r
14!
#360000000
0!
#365000000
1!
0u
b10000000000000000000000000000000000000000000000000000000001000000100000000000000000 U
b10000000000000000000000000000000000000000000000000000000001000000100000000000000000 V
b1000000100000000000000000 W
b10 Z
b10000000000000000000000000000000000000000000000000000000001000000100000000000000000 c
b100000010 e
#370000000
0!
#375000000
1!
#380000000
0!
#385000000
1!
#390000000
0!
#395000000
1!
#400000000
0!
#405000000
1!
#410000000
0!
#415000000
1!
#420000000
0!
#425000000
1!
#430000000
0!
#435000000
1!
16!
15!
1#!
1|
1H
1G
1>
1=
1O!
#440000000
0!
#445000000
1!
18!
b10110 L!
1N!
b100 :!
1K!
1:
b10110 C
b10110 D
19
b10110 A
b10110 B
0O!
1z
b10110 ~
b10110 !!
1t
b10110 v
06!
05!
#450000000
0!
#455000000
1!
b10100000000000000000000000000000000000000000000000000000001000000100000000000000000 U
b10100000000000000000000000000000000000000000000000000000001000000100000000000000000 V
b1010000000000000000 `
b101 b
b10100000000000000000000000000000000000000000000000000000001000000100000000000000000 c
b101 i
08!
0N!
b0 :!
b1000010110 j
b10110 k
b1000010110 l
b10110 m
b1 r
0:
0#!
b101 3!
0H
1O!
0|
0t
b101 {
09
b0 v
b101 <
0G
0z
0>
0=
b101 ;
0O!
b101 I!
b101 M!
#460000000
0!
#465000000
1!
0K!
#470000000
0!
#475000000
1!
#480000000
0!
#485000000
1!
#490000000
0!
#495000000
1!
#500000000
0!
#505000000
1!
#510000000
0!
#515000000
1!
#520000000
0!
#525000000
1!
#530000000
0!
#535000000
1!
#540000000
0!
#545000000
1!
16!
15!
1#!
1|
1H
1G
1>
1=
1O!
#550000000
0!
#555000000
1!
18!
b11 L!
1N!
b101 :!
1K!
1:
b11 C
b11 D
19
b11 A
b11 B
0O!
1z
b11 ~
b11 !!
1t
b11 v
06!
05!
#560000000
0!
#565000000
1!
b11000000000000000000000000000000000000000000000000000000001000000100000000000000000 U
b11000000000000000000000000000000000000000000000000000000001000000100000000000000000 V
b1100000000000000000 `
b110 b
b11000000000000000000000000000000000000000000000000000000001000000100000000000000000 c
b110 i
08!
0N!
b0 :!
b1100010110 j
b1100010110 l
b11 n
b10 r
0:
0#!
04!
b110 3!
0H
1O!
0|
0t
b110 {
09
b0 v
b110 <
0G
0z
0>
0=
b110 ;
0O!
b110 I!
b110 M!
#570000000
0!
#575000000
1!
1u
0K!
b0 r
14!
#580000000
0!
#585000000
1!
0u
b11000000000000000000000000000000000000000110000000000000001000000100000000000000000 U
b11000000000000000000000000000000000000000110000000000000001000000100000000000000000 V
b110000000000000001000000100000000000000000 W
b11 ]
b11000000000000000000000000000000000000000110000000000000001000000100000000000000000 c
b1100000000 f
#590000000
0!
#595000000
1!
#600000000
0!
#605000000
1!
#610000000
0!
#615000000
1!
#620000000
0!
#625000000
1!
#630000000
0!
#635000000
1!
#640000000
0!
#645000000
1!
#650000000
0!
#655000000
1!
16!
15!
1#!
1|
1H
1G
1>
1=
1O!
#660000000
0!
#665000000
1!
18!
b11110 L!
1N!
b110 :!
1K!
1:
b11110 C
b11110 D
19
b11110 A
b11110 B
0O!
1z
b11110 ~
b11110 !!
1t
b11110 v
06!
05!
#670000000
0!
#675000000
1!
b11100000000000000000000000000000000000000110000000000000001000000100000000000000000 U
b11100000000000000000000000000000000000000110000000000000001000000100000000000000000 V
b1110000000000000000 `
b111 b
b11100000000000000000000000000000000000000110000000000000001000000100000000000000000 c
b111 i
08!
0N!
b0 :!
b1100011110 j
b11110 k
b1100011110 l
b11110 m
b1 r
0:
0#!
b111 3!
0H
1O!
0|
0t
b111 {
09
b0 v
b111 <
0G
0z
0>
0=
b111 ;
0O!
b111 I!
b111 M!
#680000000
0!
#685000000
1!
0K!
#690000000
0!
#695000000
1!
#700000000
0!
#705000000
1!
#710000000
0!
#715000000
1!
#720000000
0!
#725000000
1!
#730000000
0!
#735000000
1!
#740000000
0!
#745000000
1!
#750000000
0!
#755000000
1!
#760000000
0!
#765000000
1!
16!
15!
1#!
1|
1H
1G
1>
1=
1O!
#770000000
0!
#775000000
1!
18!
b100 L!
1N!
b111 :!
1K!
1:
b100 C
b100 D
19
b100 A
b100 B
0O!
1z
b100 ~
b100 !!
1t
b100 v
06!
05!
#780000000
0!
#785000000
1!
b100000000000000000000000000000000000000000110000000000000001000000100000000000000000 U
b100000000000000000000000000000000000000000110000000000000001000000100000000000000000 V
b10000000000000000000 `
b1000 b
b100000000000000000000000000000000000000000110000000000000001000000100000000000000000 c
b1000 i
08!
0N!
b0 :!
b10000011110 j
b10000011110 l
b100 n
b10 r
0:
0#!
04!
b1000 3!
0H
1O!
0|
0t
b1000 {
09
b0 v
b1000 <
0G
0z
0>
0=
b1000 ;
0O!
b1000 I!
b1000 M!
#790000000
0!
#795000000
1!
1u
0K!
b0 r
14!
#800000000
0!
#805000000
1!
0u
b100000000000000000000000000000000000000000110000010000000001000000100000000000000000 U
b100000000000000000000000000000000000000000110000010000000001000000100000000000000000 V
b110000010000000001000000100000000000000000 W
b100 \
b100000000000000000000000000000000000000000110000010000000001000000100000000000000000 c
b1100000100 f
#810000000
0!
#815000000
1!
#820000000
0!
#825000000
1!
#830000000
0!
#835000000
1!
#840000000
0!
#845000000
1!
#850000000
0!
#855000000
1!
#860000000
0!
#865000000
1!
#870000000
0!
#875000000
1!
16!
15!
1#!
1|
1H
1G
1>
1=
1O!
#880000000
0!
#885000000
1!
18!
b100110 L!
1N!
b1000 :!
1K!
1:
b100110 C
b100110 D
19
b100110 A
b100110 B
0O!
1z
b100110 ~
b100110 !!
1t
b100110 v
06!
05!
#890000000
0!
#895000000
1!
b100100000000000000000000000000000000000000110000010000000001000000100000000000000000 U
b100100000000000000000000000000000000000000110000010000000001000000100000000000000000 V
b10010000000000000000 `
b1001 b
b100100000000000000000000000000000000000000110000010000000001000000100000000000000000 c
b1001 i
08!
0N!
b0 :!
b10000100110 j
b100110 k
b10000100110 l
b100110 m
b1 r
0:
0#!
b1001 3!
0H
1O!
0|
0t
b1001 {
09
b0 v
b1001 <
0G
0z
0>
0=
b1001 ;
0O!
b1001 I!
b1001 M!
#900000000
0!
#905000000
1!
0K!
#910000000
0!
#915000000
1!
#920000000
0!
#925000000
1!
#930000000
0!
#935000000
1!
#940000000
0!
#945000000
1!
#950000000
0!
#955000000
1!
#960000000
0!
#965000000
1!
#970000000
0!
#975000000
1!
#980000000
0!
#985000000
1!
16!
15!
1#!
1|
1H
1G
1>
1=
1O!
#990000000
0!
#995000000
1!
18!
b101 L!
1N!
b1001 :!
1K!
1:
b101 C
b101 D
19
b101 A
b101 B
0O!
1z
b101 ~
b101 !!
1t
b101 v
06!
05!
#1000000000
0!
#1005000000
1!
b101000000000000000000000000000000000000000110000010000000001000000100000000000000000 U
b101000000000000000000000000000000000000000110000010000000001000000100000000000000000 V
b10100000000000000000 `
b1010 b
b101000000000000000000000000000000000000000110000010000000001000000100000000000000000 c
b1010 i
08!
0N!
b0 :!
b10100100110 j
b10100100110 l
b101 n
b10 r
0:
0#!
04!
b1010 3!
0H
1O!
0|
0t
b1010 {
09
b0 v
b1010 <
0G
0z
0>
0=
b1010 ;
0O!
b1010 I!
b1010 M!
#1010000000
0!
#1015000000
1!
1u
0K!
b0 r
14!
#1020000000
0!
#1025000000
1!
0u
b101000000000000000000000010100000000000000110000010000000001000000100000000000000000 U
b101000000000000000000000010100000000000000110000010000000001000000100000000000000000 V
b10100000000000000110000010000000001000000100000000000000000 W
b101 _
b101000000000000000000000010100000000000000110000010000000001000000100000000000000000 c
b10100000000 g
#1030000000
0!
#1035000000
1!
#1040000000
0!
#1045000000
1!
#1050000000
0!
#1055000000
1!
#1060000000
0!
#1065000000
1!
#1070000000
0!
#1075000000
1!
#1080000000
0!
#1085000000
1!
#1090000000
0!
#1095000000
1!
16!
15!
1#!
1|
1H
1G
1>
1=
1O!
#1100000000
0!
#1105000000
1!
18!
b101110 L!
1N!
b1010 :!
1K!
1:
b101110 C
b101110 D
19
b101110 A
b101110 B
0O!
1z
b101110 ~
b101110 !!
1t
b101110 v
06!
05!
#1110000000
0!
#1115000000
1!
b101100000000000000000000010100000000000000110000010000000001000000100000000000000000 U
b101100000000000000000000010100000000000000110000010000000001000000100000000000000000 V
b10110000000000000000 `
b1011 b
b101100000000000000000000010100000000000000110000010000000001000000100000000000000000 c
b1011 i
08!
0N!
b0 :!
b10100101110 j
b101110 k
b10100101110 l
b101110 m
b1 r
0:
0#!
b1011 3!
0H
1O!
0|
0t
b1011 {
09
b0 v
b1011 <
0G
0z
0>
0=
b1011 ;
0O!
b1011 I!
b1011 M!
#1120000000
0!
#1125000000
1!
0K!
#1130000000
0!
#1135000000
1!
#1140000000
0!
#1145000000
1!
#1150000000
0!
#1155000000
1!
#1160000000
0!
#1165000000
1!
#1170000000
0!
#1175000000
1!
#1180000000
0!
#1185000000
1!
#1190000000
0!
#1195000000
1!
#1200000000
0!
#1205000000
1!
16!
15!
1#!
1|
1H
1G
1>
1=
1O!
#1210000000
0!
