bench/tb_interconnect.vcd
$comment Generated by Amaranth $end
$date 2025-04-02 18:48:27.877688 $end
$timescale 1 fs $end
$scope module bench $end
$scope module top $end
$var wire 1 ! clk $end
$var wire 1 " rst $end
$var wire 1 # p_00__ack $end
$var wire 1 $ bus__ack $end
$var wire 16 % bus__addr $end
$var wire 16 & p_00__addr $end
$var wire 1 ' bus__cycle $end
$var wire 1 ( p_00__cycle $end
$var wire 1 ) p_00__err $end
$var wire 1 * bus__err $end
$var wire 32 + p_00__r $end
$var wire 32 , \p_00__r.data $end
$var wire 32 - bus__r $end
$var wire 32 . \bus__r.data $end
$var wire 4 / bus__sel $end
$var wire 4 0 p_00__sel $end
$var wire 1 1 bus__stb $end
$var wire 1 2 p_00__stb $end
$var wire 33 3 bus__w $end
$var wire 32 4 \bus__w.data $end
$var wire 1 5 \bus__w.enable $end
$var wire 33 6 p_00__w $end
$var wire 32 7 \p_00__w.data $end
$var wire 1 8 \p_00__w.enable $end
$scope module interconnect $end
$var wire 1 ! clk $end
$var wire 1 " rst $end
$var wire 1 # p_00__ack $end
$var wire 16 & p_00__addr $end
$var wire 1 ( p_00__cycle $end
$var wire 1 ) p_00__err $end
$var wire 32 + p_00__r $end
$var wire 32 , \p_00__r.data $end
$var wire 4 0 p_00__sel $end
$var wire 1 2 p_00__stb $end
$var wire 33 6 p_00__w $end
$var wire 32 7 \p_00__w.data $end
$var wire 1 8 \p_00__w.enable $end
$var wire 2 9 select $end
$var wire 1 : c_00__cycle $end
$var wire 1 ; c_00__ack $end
$var wire 1 < c__ack $end
$var wire 16 = c__addr $end
$var wire 16 > c_00__addr $end
$var wire 1 ? c__cycle $end
$var wire 1 @ c_00__err $end
$var wire 1 A c__err $end
$var wire 32 B c_00__r $end
$var wire 32 C \c_00__r.data $end
$var wire 32 D c__r $end
$var wire 32 E \c__r.data $end
$var wire 4 F c__sel $end
$var wire 4 G c_00__sel $end
$var wire 1 H c__stb $end
$var wire 1 I c_00__stb $end
$var wire 33 J c__w $end
$var wire 32 K \c__w.data $end
$var wire 1 L \c__w.enable $end
$var wire 33 M c_00__w $end
$var wire 32 N \c_00__w.data $end
$var wire 1 O \c_00__w.enable $end
$var wire 1 P c_01__cycle $end
$var wire 1 Q c_01__ack $end
$var wire 16 R c_01__addr $end
$var wire 1 S c_01__err $end
$var wire 32 T c_01__r $end
$var wire 32 U \c_01__r.data $end
$var wire 4 V c_01__sel $end
$var wire 1 W c_01__stb $end
$var wire 33 X c_01__w $end
$var wire 32 Y \c_01__w.data $end
$var wire 1 Z \c_01__w.enable $end
$var wire 1 [ c_02__cycle $end
$var wire 1 \ c_02__ack $end
$var wire 16 ] c_02__addr $end
$var wire 1 ^ c_02__err $end
$var wire 32 _ c_02__r $end
$var wire 32 ` \c_02__r.data $end
$var wire 4 a c_02__sel $end
$var wire 1 b c_02__stb $end
$var wire 33 c c_02__w $end
$var wire 32 d \c_02__w.data $end
$var wire 1 e \c_02__w.enable $end
$var wire 1 f c_03__cycle $end
$var wire 1 g c_03__ack $end
$var wire 16 h c_03__addr $end
$var wire 1 i c_03__err $end
$var wire 32 j c_03__r $end
$var wire 32 k \c_03__r.data $end
$var wire 4 l c_03__sel $end
$var wire 1 m c_03__stb $end
$var wire 33 n c_03__w $end
$var wire 32 o \c_03__w.data $end
$var wire 1 p \c_03__w.enable $end
$var wire 1 q p__ack $end
$var wire 16 r p__addr $end
$var wire 1 s p__cycle $end
$var wire 1 t p__err $end
$var wire 32 u p__r $end
$var wire 32 v \p__r.data $end
$var wire 4 w p__sel $end
$var wire 1 x p__stb $end
$var wire 33 y p__w $end
$var wire 32 z \p__w.data $end
$var wire 1 { \p__w.enable $end
$scope module bridge $end
$var wire 1 < c__ack $end
$var wire 16 = c__addr $end
$var wire 1 ? c__cycle $end
$var wire 32 D c__r $end
$var wire 32 E \c__r.data $end
$var wire 4 F c__sel $end
$var wire 1 H c__stb $end
$var wire 33 J c__w $end
$var wire 32 K \c__w.data $end
$var wire 1 L \c__w.enable $end
$var wire 1 q p__ack $end
$var wire 16 r p__addr $end
$var wire 1 s p__cycle $end
$var wire 32 u p__r $end
$var wire 32 v \p__r.data $end
$var wire 4 w p__sel $end
$var wire 1 x p__stb $end
$var wire 33 y p__w $end
$var wire 32 z \p__w.data $end
$var wire 1 { \p__w.enable $end
$upscope $end
$upscope $end
$scope module mem $end
$var wire 1 ! clk $end
$var wire 1 " rst $end
$var wire 1 $ bus__ack $end
$var wire 16 % bus__addr $end
$var wire 1 ' bus__cycle $end
$var wire 32 - bus__r $end
$var wire 32 . \bus__r.data $end
$var wire 1 1 bus__stb $end
$var wire 33 3 bus__w $end
$var wire 32 4 \bus__w.data $end
$var wire 1 5 \bus__w.enable $end
$var wire 32 | $signature__data $end
$var wire 6 } $signature__addr $end
$var wire 1 ~ $signature__en $end
$var wire 1 !! write_stb_last $end
$var wire 32 "! $signature__data$10 $end
$var wire 6 #! $signature__addr$11 $end
$var wire 1 $! read_valid $end
$var wire 1 %! $signature__en$13 $end
$var wire 32 &! verify__r $end
$var wire 32 '! \verify__r.data $end
$var wire 32 (! $signature__data$15 $end
$var wire 6 )! $signature__addr$16 $end
$var wire 16 *! verify__addr $end
$var wire 33 +! verify__w $end
$var wire 32 ,! \verify__w.data $end
$var wire 1 -! \verify__w.enable $end
$var wire 1 .! verify__ack $end
$var wire 1 /! read_valid$20 $end
$var wire 1 0! verify__stb $end
$var wire 1 1! $signature__en$22 $end
$var wire 1 2! verify__cycle $end
$var wire 32 3! \buffer[0] $end
$var wire 32 4! \buffer[1] $end
$var wire 32 5! \buffer[2] $end
$var wire 32 6! \buffer[3] $end
$var wire 32 7! \buffer[4] $end
$var wire 32 8! \buffer[5] $end
$var wire 32 9! \buffer[6] $end
$var wire 32 :! \buffer[7] $end
$var wire 32 ;! \buffer[8] $end
$var wire 32 <! \buffer[9] $end
$var wire 32 =! \buffer[10] $end
$var wire 32 >! \buffer[11] $end
$var wire 32 ?! \buffer[12] $end
$var wire 32 @! \buffer[13] $end
$var wire 32 A! \buffer[14] $end
$var wire 32 B! \buffer[15] $end
$var wire 32 C! \buffer[16] $end
$var wire 32 D! \buffer[17] $end
$var wire 32 E! \buffer[18] $end
$var wire 32 F! \buffer[19] $end
$var wire 32 G! \buffer[20] $end
$var wire 32 H! \buffer[21] $end
$var wire 32 I! \buffer[22] $end
$var wire 32 J! \buffer[23] $end
$var wire 32 K! \buffer[24] $end
$var wire 32 L! \buffer[25] $end
$var wire 32 M! \buffer[26] $end
$var wire 32 N! \buffer[27] $end
$var wire 32 O! \buffer[28] $end
$var wire 32 P! \buffer[29] $end
$var wire 32 Q! \buffer[30] $end
$var wire 32 R! \buffer[31] $end
$var wire 32 S! \buffer[32] $end
$var wire 32 T! \buffer[33] $end
$var wire 32 U! \buffer[34] $end
$var wire 32 V! \buffer[35] $end
$var wire 32 W! \buffer[36] $end
$var wire 32 X! \buffer[37] $end
$var wire 32 Y! \buffer[38] $end
$var wire 32 Z! \buffer[39] $end
$var wire 32 [! \buffer[40] $end
$var wire 32 \! \buffer[41] $end
$var wire 32 ]! \buffer[42] $end
$var wire 32 ^! \buffer[43] $end
$var wire 32 _! \buffer[44] $end
$var wire 32 `! \buffer[45] $end
$var wire 32 a! \buffer[46] $end
$var wire 32 b! \buffer[47] $end
$var wire 32 c! \buffer[48] $end
$var wire 32 d! \buffer[49] $end
$var wire 32 e! \buffer[50] $end
$var wire 32 f! \buffer[51] $end
$var wire 32 g! \buffer[52] $end
$var wire 32 h! \buffer[53] $end
$var wire 32 i! \buffer[54] $end
$var wire 32 j! \buffer[55] $end
$var wire 32 k! \buffer[56] $end
$var wire 32 l! \buffer[57] $end
$var wire 32 m! \buffer[58] $end
$var wire 32 n! \buffer[59] $end
$var wire 32 o! \buffer[60] $end
$var wire 32 p! \buffer[61] $end
$var wire 32 q! \buffer[62] $end
$var wire 32 r! \buffer[63] $end
$scope module buffer $end
$var wire 1 ! clk $end
$var wire 1 " rst $end
$var wire 32 | $signature__data$9 $end
$var wire 6 } $signature__addr$8 $end
$var wire 1 ~ $signature__en$10 $end
$var wire 32 "! $signature__data $end
$var wire 6 #! $signature__addr $end
$var wire 1 %! $signature__en $end
$var wire 32 (! $signature__data$6 $end
$var wire 6 )! $signature__addr$5 $end
$var wire 1 1! $signature__en$7 $end
$upscope $end
$upscope $end
$upscope $end
$upscope $end
$enddefinitions $end
#0
$dumpvars
0!
0"
0#
0$
b10000 %
b10000 &
1'
1(
0)
0*
b0 +
b0 ,
b0 -
b0 .
b0 /
b0 0
11
12
b100000000000000000000000000000001 3
b1 4
15
b100000000000000000000000000000001 6
b1 7
18
b0 9
1:
0;
0<
b10000 =
b10000 >
1?
0@
0A
b0 B
b0 C
b0 D
b0 E
b0 F
b0 G
1H
1I
b100000000000000000000000000000001 J
b1 K
1L
b100000000000000000000000000000001 M
b1 N
1O
0P
0Q
b0 R
0S
b0 T
b0 U
b0 V
0W
b0 X
b0 Y
0Z
0[
0\
b0 ]
0^
b0 _
b0 `
b0 a
0b
b0 c
b0 d
0e
0f
0g
b0 h
0i
b0 j
b0 k
b0 l
0m
b0 n
b0 o
0p
0q
b10000 r
1s
0t
b0 u
b0 v
b0 w
1x
b100000000000000000000000000000001 y
b1 z
1{
b1 |
b10000 }
0~
0!!
b0 "!
b10000 #!
0$!
1%!
b0 &!
b0 '!
b0 (!
b0 )!
b0 *!
b0 +!
b0 ,!
0-!
0.!
0/!
00!
01!
02!
b0 3!
b0 4!
b0 5!
b0 6!
b0 7!
b0 8!
b0 9!
b0 :!
b0 ;!
b0 <!
b0 =!
b0 >!
b0 ?!
b0 @!
b0 A!
b0 B!
b0 C!
b0 D!
b0 E!
b0 F!
b0 G!
b0 H!
b0 I!
b0 J!
b0 K!
b0 L!
b0 M!
b0 N!
b0 O!
b0 P!
b0 Q!
b0 R!
b0 S!
b0 T!
b0 U!
b0 V!
b0 W!
b0 X!
b0 Y!
b0 Z!
b0 [!
b0 \!
b0 ]!
b0 ^!
b0 _!
b0 `!
b0 a!
b0 b!
b0 c!
b0 d!
b0 e!
b0 f!
b0 g!
b0 h!
b0 i!
b0 j!
b0 k!
b0 l!
b0 m!
b0 n!
b0 o!
b0 p!
b0 q!
b0 r!
$end
#5000000
1!
1!!
1~
1$
1#
1q
1<
1;
#10000000
0!
#15000000
1!
b1 C!
0I
0H
0x
02
01
0~
0$
0#
0q
0<
0;
b1 M
0O
b1 J
0L
b1 y
0{
b1 6
08
b1 3
05
0%!
0:
b0 =
b0 J
b0 K
0?
b0 y
b0 z
0s
b0 r
b0 6
b0 7
b0 &
0(
0'
b0 %
b0 3
b0 4
b0 |
b0 }
b0 #!
1:
b10000 =
b1 J
b1 K
1?
b1 y
b1 z
1s
b10000 r
b1 6
b1 7
b10000 &
1(
1'
b10000 %
b1 3
b1 4
b1 |
b10000 }
b10000 #!
1I
1H
1x
12
11
1%!
#20000000
0!
#25000000
1!
b1 "!
1$!
1$
b1 -
b1 .
0%!
1#
b1 +
b1 ,
b1 u
b1 v
1q
1<
b1 D
b1 E
1;
b1 B
b1 C
#30000000
0!
#35000000
1!
0$!
0$
1%!
0#
0q
0<
0;
0I
0H
0x
02
01
0%!
0:
b0 =
b0 J
b0 K
b0 B
b0 C
0?
b0 y
b0 z
0s
b0 r
b0 6
b0 7
b0 &
0(
0'
b0 %
b0 3
b0 4
b0 |
b0 }
b0 #!
b1100101 X
b1100101 Y
b10 R
b100000000000000000000000001100101 X
1Z
1W
1P
#40000000
0!
#45000000
1!
0!!
b1 9
b10 =
b1 T
b1 U
b100000000000000000000000001100101 J
b1100101 K
1L
1?
1H
b100000000000000000000000001100101 y
b1100101 z
1{
1x
1s
b10 r
b100000000000000000000000001100101 6
b1100101 7
18
b10 &
1(
12
11
1'
b10 %
b100000000000000000000000001100101 3
b1100101 4
15
b1100101 |
1%!
b10 }
b10 #!
#50000000
0!
#55000000
1!
1!!
b0 "!
1~
b0 -
b0 .
1$
b0 +
b0 ,
b0 u
b0 v
1#
1q
b0 D
b0 E
1<
b0 T
b0 U
1Q
#60000000
0!
#65000000
1!
b1100101 5!
0W
0H
0x
02
01
0~
0$
0#
0q
0<
0Q
b1100101 X
0Z
b1100101 J
0L
b1100101 y
0{
b1100101 6
08
b1100101 3
05
0%!
0P
b0 =
b0 J
b0 K
0?
b0 y
b0 z
0s
b0 r
b0 6
b0 7
b0 &
0(
0'
b0 %
b0 3
b0 4
b0 |
b0 }
b0 #!
1P
b10 =
b1100101 J
b1100101 K
1?
b1100101 y
b1100101 z
1s
b10 r
b1100101 6
b1100101 7
b10 &
1(
1'
b10 %
b1100101 3
b1100101 4
b1100101 |
b10 }
b10 #!
1W
1H
1x
12
11
1%!
#70000000
0!
#75000000
1!
b1100101 "!
1$!
1$
b1100101 -
b1100101 .
0%!
1#
b1100101 +
b1100101 ,
b1100101 u
b1100101 v
1q
1<
b1100101 D
b1100101 E
1Q
b1100101 T
b1100101 U
#80000000
0!
#85000000
1!
0$!
0$
1%!
0#
0q
0<
0Q
0W
0H
0x
02
01
0%!
0P
b0 =
b0 J
b0 K
b0 T
b0 U
0?
b0 y
b0 z
0s
b0 r
b0 6
b0 7
b0 &
0(
0'
b0 %
b0 3
b0 4
b0 |
b0 }
b0 #!
b100 c
b100 d
b11 ]
b100000000000000000000000000000100 c
1e
1b
1[
#90000000
0!
#95000000
1!
0!!
b10 9
b11 =
b100000000000000000000000000000100 J
b100 K
1L
1?
b1100101 _
b1100101 `
1H
b100000000000000000000000000000100 y
b100 z
1{
1x
1s
b11 r
b100000000000000000000000000000100 6
b100 7
18
b11 &
1(
12
11
1'
b11 %
b100000000000000000000000000000100 3
b100 4
15
b100 |
1%!
b11 }
b11 #!
#100000000
0!
#105000000
1!
1!!
b0 "!
1~
b0 -
b0 .
1$
b0 +
b0 ,
b0 u
b0 v
1#
1q
b0 D
b0 E
b0 _
b0 `
1<
1\
#110000000
0!
#115000000
1!
b100 6!
0b
0H
0x
02
01
0~
0$
0#
0q
0<
0\
b100 c
0e
b100 J
0L
b100 y
0{
b100 6
08
b100 3
05
0%!
0[
b0 =
b0 J
b0 K
0?
b0 y
b0 z
0s
b0 r
b0 6
b0 7
b0 &
0(
0'
b0 %
b0 3
b0 4
b0 |
b0 }
b0 #!
b110 n
b110 o
b100 h
b100000000000000000000000000000110 n
1p
1m
1f
#120000000
0!
#125000000
1!
0!!
b11 9
b100 =
b100000000000000000000000000000110 J
b110 K
1L
1?
1H
b100000000000000000000000000000110 y
b110 z
1{
1x
1s
b100 r
b100000000000000000000000000000110 6
b110 7
18
b100 &
1(
12
11
1'
b100 %
b100000000000000000000000000000110 3
b110 4
15
b110 |
1%!
b100 }
b100 #!
#130000000
0!
#135000000
1!
1!!
1~
1$
1#
1q
1<
1g
#140000000
0!
#145000000
1!
b110 7!
0m
0H
0x
02
01
0~
0$
0#
0q
0<
0g
b110 n
0p
b110 J
0L
b110 y
0{
b110 6
08
b110 3
05
0%!
0f
b0 =
b0 J
b0 K
0?
b0 y
b0 z
0s
b0 r
b0 6
b0 7
b0 &
0(
0'
b0 %
b0 3
b0 4
b0 |
b0 }
b0 #!
1[
1b
#150000000
0!
#155000000
1!
0!!
b0 9
#160000000
0!
#165000000
1!
b1 9
#170000000
0!
#175000000
1!
b10 9
b11 =
b100 J
b100 K
1?
1H
b100 y
b100 z
1x
1s
b11 r
b100 6
b100 7
b11 &
1(
12
11
1'
b11 %
b100 3
b100 4
b100 |
1%!
b11 }
b11 #!
#180000000
0!
#185000000
1!
1!!
b100 "!
1$!
1$
b100 -
b100 .
0%!
1#
b100 +
b100 ,
b100 u
b100 v
1q
1<
b100 D
b100 E
b100 _
b100 `
1\
#190000000
0!
#195000000
1!
0$!
0$
1%!
0#
0q
0<
0\
0b
0H
0x
02
01
0%!
0[
b0 _
b0 `
b0 =
b0 J
b0 K
0?
b0 y
b0 z
0s
b0 r
b0 6
b0 7
b0 &
0(
0'
b0 %
b0 3
b0 4
b0 |
b0 }
b0 #!
1f
1m
#200000000
0!
#205000000
1!
0!!
b11 9
b100 j
b100 k
b100 =
b110 J
b110 K
1?
1H
b110 y
b110 z
1x
1s
b100 r
b110 6
b110 7
b100 &
1(
12
11
1'
b100 %
b110 3
b110 4
b110 |
1%!
b100 }
b100 #!
#210000000
0!
#215000000
1!
1!!
b110 "!
1$!
1$
b110 -
b110 .
0%!
1#
b110 +
b110 ,
b110 u
b110 v
1q
1<
b110 D
b110 E
b110 j
b110 k
1g
#220000000
0!
#225000000
1!
0$!
0$
1%!
0#
0q
0<
0g
0m
0H
0x
02
01
0%!
0f
b0 j
b0 k
b0 =
b0 J
b0 K
0?
b0 y
b0 z
0s
b0 r
b0 6
b0 7
b0 &
0(
0'
b0 %
b0 3
b0 4
b0 |
b0 }
b0 #!
