bench/tb_upsample_vertical.vcd
$comment Generated by Amaranth $end
$date 2025-04-02 18:48:27.787906 $end
$timescale 1 fs $end
$scope module bench $end
$scope module top $end
$var wire 1 ! clk $end
$var wire 1 " rst $end
$var wire 1 # addr_last $end
$var wire 2 $ addr $end
$var wire 1 % active $end
$var wire 2 & line_counter $end
$var wire 1 ' produce__vsync $end
$var wire 1 ( sync_flag $end
$var wire 16 ) produce__data $end
$var wire 16 * consume__data $end
$var wire 1 + produce__valid $end
$var wire 1 , consume__valid $end
$var wire 1 - consume__ready $end
$var wire 1 . produce__ready $end
$var wire 1 / write_port__en $end
$var wire 16 0 write_port__data $end
$var wire 2 1 write_port__addr $end
$var wire 2 2 read_port__addr $end
$var wire 16 3 read_port__data $end
$var wire 1 4 consume__vsync $end
$var wire 16 5 \buffer[0] $end
$var wire 16 6 \buffer[1] $end
$var wire 16 7 \buffer[2] $end
$var wire 16 8 \buffer[3] $end
$scope module buffer $end
$var wire 1 ! clk $end
$var wire 1 " rst $end
$var wire 1 / write_port__en $end
$var wire 16 0 write_port__data $end
$var wire 2 1 write_port__addr $end
$var wire 2 2 read_port__addr $end
$var wire 16 3 read_port__data $end
$upscope $end
$upscope $end
$upscope $end
$enddefinitions $end
#0
$dumpvars
0!
0"
0#
b0 $
1%
b0 &
0'
0(
b0 )
b0 *
1+
1,
1-
1.
1/
b0 0
b0 1
b0 2
b0 3
04
b0 5
b0 6
b0 7
b0 8
$end
#5000000
1!
b1 $
b1 1
0,
0+
0/
b1 *
b1 )
b1 0
1,
1+
1/
0.
0/
0-
#10000000
0!
#15000000
1!
#20000000
0!
#25000000
1!
1.
1/
1-
#30000000
0!
#35000000
1!
b10 $
b1 6
b10 1
0,
0+
0/
b10 *
b10 )
b10 0
1,
1+
1/
0.
0/
0-
#40000000
0!
#45000000
1!
#50000000
0!
#55000000
1!
1.
1/
1-
#60000000
0!
#65000000
1!
b11 $
b10 7
1#
b11 1
0,
0+
0/
b11 *
b11 )
b11 0
1,
1+
1/
0.
0/
0-
#70000000
0!
#75000000
1!
#80000000
0!
#85000000
1!
1.
1/
1-
#90000000
0!
#95000000
1!
b0 $
b11 8
b1 &
0#
0%
b0 1
b0 0
0/
0-
b0 )
0,
b0 *
1,
0.
#100000000
0!
#105000000
1!
#110000000
0!
#115000000
1!
1.
#120000000
0!
#125000000
1!
b1 $
b1 2
b1 3
b1 )
0.
#130000000
0!
#135000000
1!
#140000000
0!
#145000000
1!
1.
#150000000
0!
#155000000
1!
b10 $
b10 2
b10 3
b10 )
0.
#160000000
0!
#165000000
1!
#170000000
0!
#175000000
1!
1.
#180000000
0!
#185000000
1!
b11 $
1#
b11 2
b11 3
b11 )
0.
#190000000
0!
#195000000
1!
#200000000
0!
#205000000
1!
1.
#210000000
0!
#215000000
1!
b0 $
b10 &
0#
b0 2
b0 3
b0 )
0.
#220000000
0!
#225000000
1!
#230000000
0!
#235000000
1!
1.
#240000000
0!
#245000000
1!
b1 $
b1 2
b1 3
b1 )
0.
#250000000
0!
#255000000
1!
#260000000
0!
#265000000
1!
1.
#270000000
0!
#275000000
1!
b10 $
b10 2
b10 3
b10 )
0.
#280000000
0!
#285000000
1!
#290000000
0!
#295000000
1!
1.
#300000000
0!
#305000000
1!
b11 $
1#
b11 2
b11 3
b11 )
0.
#310000000
0!
#315000000
1!
#320000000
0!
#325000000
1!
1.
#330000000
0!
#335000000
1!
b0 $
b11 &
0#
b0 2
b0 3
b0 )
0.
#340000000
0!
#345000000
1!
#350000000
0!
#355000000
1!
1.
#360000000
0!
#365000000
1!
b1 $
b1 2
b1 3
b1 )
0.
#370000000
0!
#375000000
1!
#380000000
0!
#385000000
1!
1.
#390000000
0!
#395000000
1!
b10 $
b10 2
b10 3
b10 )
0.
#400000000
0!
#405000000
1!
#410000000
0!
#415000000
1!
1.
#420000000
0!
#425000000
1!
b11 $
1#
b11 2
b11 3
b11 )
0.
#430000000
0!
#435000000
1!
#440000000
0!
#445000000
1!
1.
#450000000
0!
#455000000
1!
b0 $
b0 &
0#
1%
b0 2
b11 0
b0 )
b0 3
1-
1/
b0 0
0.
0/
0-
#460000000
0!
#465000000
1!
#470000000
0!
#475000000
1!
1.
1/
1-
#480000000
0!
#485000000
1!
b1 $
b1 1
0,
0+
0/
b1 *
b1 )
b1 0
1,
1+
1/
0.
0/
0-
#490000000
0!
#495000000
1!
#500000000
0!
#505000000
1!
1.
1/
1-
#510000000
0!
#515000000
1!
b10 $
b10 1
0,
0+
0/
b10 *
b10 )
b10 0
1,
1+
1/
0.
0/
0-
#520000000
0!
#525000000
1!
#530000000
0!
#535000000
1!
1.
1/
1-
#540000000
0!
#545000000
1!
b11 $
1#
b11 1
0,
0+
0/
b11 *
b11 )
b11 0
1,
1+
1/
0.
0/
0-
#550000000
0!
#555000000
1!
#560000000
0!
#565000000
1!
1.
1/
1-
#570000000
0!
#575000000
1!
b0 $
b1 &
0#
0%
b0 1
b0 0
0/
0-
b0 )
0,
b0 *
1,
0.
#580000000
0!
#585000000
1!
#590000000
0!
#595000000
1!
1.
#600000000
0!
#605000000
1!
b1 $
b1 2
b1 3
b1 )
0.
#610000000
0!
#615000000
1!
#620000000
0!
#625000000
1!
1.
#630000000
0!
#635000000
1!
b10 $
b10 2
b10 3
b10 )
0.
#640000000
0!
#645000000
1!
#650000000
0!
#655000000
1!
1.
#660000000
0!
#665000000
1!
b11 $
1#
b11 2
b11 3
b11 )
0.
#670000000
0!
#675000000
1!
#680000000
0!
#685000000
1!
1.
#690000000
0!
#695000000
1!
b0 $
b10 &
0#
b0 2
b0 3
b0 )
0.
#700000000
0!
#705000000
1!
#710000000
0!
#715000000
1!
1.
#720000000
0!
#725000000
1!
b1 $
b1 2
b1 3
b1 )
0.
#730000000
0!
#735000000
1!
#740000000
0!
#745000000
1!
1.
#750000000
0!
#755000000
1!
b10 $
b10 2
b10 3
b10 )
0.
#760000000
0!
#765000000
1!
#770000000
0!
#775000000
1!
1.
#780000000
0!
#785000000
1!
b11 $
1#
b11 2
b11 3
b11 )
0.
#790000000
0!
#795000000
1!
#800000000
0!
#805000000
1!
1.
#810000000
0!
#815000000
1!
b0 $
b11 &
0#
b0 2
b0 3
b0 )
0.
#820000000
0!
#825000000
1!
#830000000
0!
#835000000
1!
1.
#840000000
0!
#845000000
1!
b1 $
b1 2
b1 3
b1 )
0.
#850000000
0!
#855000000
1!
#860000000
0!
#865000000
1!
1.
#870000000
0!
#875000000
1!
b10 $
b10 2
b10 3
b10 )
0.
#880000000
0!
#885000000
1!
#890000000
0!
#895000000
1!
1.
#900000000
0!
#905000000
1!
b11 $
1#
b11 2
b11 3
b11 )
0.
#910000000
0!
#915000000
1!
#920000000
0!
#925000000
1!
1.
#930000000
0!
#935000000
1!
b0 $
b0 &
0#
1%
b0 2
b11 0
b0 )
b0 3
1-
1/
b0 0
0.
0/
0-
#940000000
0!
#945000000
1!
#950000000
0!
#955000000
1!
1.
1/
1-
#960000000
0!
#965000000
1!
b1 $
b1 1
0,
0+
0/
b1 *
b1 )
b1 0
1,
1+
1/
0.
0/
0-
#970000000
0!
#975000000
1!
#980000000
0!
#985000000
1!
1.
1/
1-
#990000000
0!
#995000000
1!
b10 $
b10 1
0,
0+
0/
b10 *
b10 )
b10 0
1,
1+
1/
0.
0/
0-
