bench/vga.vcd
$comment Generated by Amaranth $end
$date 2025-04-02 18:48:27.806053 $end
$timescale 1 fs $end
$scope module bench $end
$scope module top $end
$var wire 1 ! clk $end
$var wire 1 " rst $end
$var wire 1 # pix_clk $end
$var wire 2 $ pix_counter $end
$var wire 1 % clk_en $end
$var wire 1 & clk_en$5 $end
$var wire 1 ' ovf $end
$var wire 1 ( video_active $end
$var string 1 ) state $end
$var string 1 * state$9 $end
$var wire 1 + input_enable $end
$var wire 1 , consume__ready $end
$var wire 12 - data $end
$var wire 12 . consume__data $end
$var wire 4 / \consume__data.r $end
$var wire 4 0 \consume__data.g $end
$var wire 4 1 \consume__data.b $end
$var wire 1 2 hsync $end
$var wire 1 3 vsync $end
$var wire 1 4 consume__valid $end
$var wire 1 5 consume__vsync $end
$scope module hcounter $end
$var wire 1 ! clk $end
$var wire 1 " rst $end
$var wire 1 % clk_en $end
$var wire 1 ' ovf$2 $end
$var string 1 ) state $end
$var wire 1 6 ovf $end
$var wire 4 7 counter $end
$upscope $end
$scope module vcounter $end
$var wire 1 ! clk $end
$var wire 1 " rst $end
$var wire 1 & clk_en $end
$var string 1 * state $end
$var wire 1 8 ovf $end
$var wire 4 9 counter $end
$var wire 1 : ovf$2 $end
$upscope $end
$upscope $end
$upscope $end
$enddefinitions $end
#0
$dumpvars
0!
0"
1#
b0 $
1%
0&
0'
0(
sBP )
sBP *
1+
0,
b0 -
b101110101100 .
b1100 /
b1010 0
b1011 1
02
03
14
05
06
b0 7
08
b0 9
0:
$end
#5000000
1!
b1 $
b1 7
0#
0%
#10000000
0!
#15000000
1!
b10 $
#20000000
0!
#25000000
1!
b0 $
1#
1%
#30000000
0!
#35000000
1!
b1 $
b10 7
sACTIVE )
0#
0%
#40000000
0!
#45000000
1!
b10 $
#50000000
0!
#55000000
1!
b0 $
1#
1%
#60000000
0!
#65000000
1!
b1 $
b11 7
0#
0%
#70000000
0!
#75000000
1!
b10 $
#80000000
0!
#85000000
1!
b0 $
1#
1%
#90000000
0!
#95000000
1!
b1 $
b100 7
0#
0%
#100000000
0!
#105000000
1!
b10 $
#110000000
0!
#115000000
1!
b0 $
1#
1%
#120000000
0!
#125000000
1!
b1 $
b101 7
0#
0%
#130000000
0!
#135000000
1!
b10 $
#140000000
0!
#145000000
1!
b0 $
1#
1%
#150000000
0!
#155000000
1!
b1 $
b110 7
0#
0%
#160000000
0!
#165000000
1!
b10 $
#170000000
0!
#175000000
1!
b0 $
1#
1%
#180000000
0!
#185000000
1!
b1 $
b111 7
0#
0%
#190000000
0!
#195000000
1!
b10 $
#200000000
0!
#205000000
1!
b0 $
1#
1%
#210000000
0!
#215000000
1!
b1 $
b1000 7
0#
0%
#220000000
0!
#225000000
1!
b10 $
#230000000
0!
#235000000
1!
b0 $
1#
1%
#240000000
0!
#245000000
1!
b1 $
b1001 7
0#
0%
#250000000
0!
#255000000
1!
b10 $
#260000000
0!
#265000000
1!
b0 $
1#
1%
#270000000
0!
#275000000
1!
b1 $
b1010 7
0#
0%
#280000000
0!
#285000000
1!
b10 $
#290000000
0!
#295000000
1!
b0 $
1#
1%
#300000000
0!
#305000000
1!
b1 $
b1011 7
0#
0%
#310000000
0!
#315000000
1!
b10 $
#320000000
0!
#325000000
1!
b0 $
1#
1%
#330000000
0!
#335000000
1!
b1 $
b1100 7
sFP )
0#
0%
#340000000
0!
#345000000
1!
b10 $
#350000000
0!
#355000000
1!
b0 $
1#
1%
#360000000
0!
#365000000
1!
b1 $
b1101 7
0#
0%
#370000000
0!
#375000000
1!
b10 $
#380000000
0!
#385000000
1!
b0 $
1#
1%
#390000000
0!
#395000000
1!
b1 $
b1110 7
sSYNC )
0#
12
0%
#400000000
0!
#405000000
1!
b10 $
#410000000
0!
#415000000
1!
b0 $
1#
1%
#420000000
0!
#425000000
1!
b1 $
b1111 7
16
0#
1'
0%
1&
0'
0&
#430000000
0!
#435000000
1!
b10 $
#440000000
0!
#445000000
1!
b0 $
1#
1%
1'
1&
#450000000
0!
#455000000
1!
b1 $
b1 9
b0 7
sBP )
06
0#
02
0'
0%
0&
#460000000
0!
#465000000
1!
b10 $
#470000000
0!
#475000000
1!
b0 $
1#
1%
#480000000
0!
#485000000
1!
b1 $
b1 7
0#
0%
#490000000
0!
#495000000
1!
b10 $
#500000000
0!
#505000000
1!
b0 $
1#
1%
#510000000
0!
#515000000
1!
b1 $
b10 7
sACTIVE )
0#
0%
#520000000
0!
#525000000
1!
b10 $
#530000000
0!
#535000000
1!
b0 $
1#
1%
#540000000
0!
#545000000
1!
b1 $
b11 7
0#
0%
#550000000
0!
#555000000
1!
b10 $
#560000000
0!
#565000000
1!
b0 $
1#
1%
#570000000
0!
#575000000
1!
b1 $
b100 7
0#
0%
#580000000
0!
#585000000
1!
b10 $
#590000000
0!
#595000000
1!
b0 $
1#
1%
#600000000
0!
#605000000
1!
b1 $
b101 7
0#
0%
#610000000
0!
#615000000
1!
b10 $
#620000000
0!
#625000000
1!
b0 $
1#
1%
#630000000
0!
#635000000
1!
b1 $
b110 7
0#
0%
#640000000
0!
#645000000
1!
b10 $
#650000000
0!
#655000000
1!
b0 $
1#
1%
#660000000
0!
#665000000
1!
b1 $
b111 7
0#
0%
#670000000
0!
#675000000
1!
b10 $
#680000000
0!
#685000000
1!
b0 $
1#
1%
#690000000
0!
#695000000
1!
b1 $
b1000 7
0#
0%
#700000000
0!
#705000000
1!
b10 $
#710000000
0!
#715000000
1!
b0 $
1#
1%
#720000000
0!
#725000000
1!
b1 $
b1001 7
0#
0%
#730000000
0!
#735000000
1!
b10 $
#740000000
0!
#745000000
1!
b0 $
1#
1%
#750000000
0!
#755000000
1!
b1 $
b1010 7
0#
0%
#760000000
0!
#765000000
1!
b10 $
#770000000
0!
#775000000
1!
b0 $
1#
1%
#780000000
0!
#785000000
1!
b1 $
b1011 7
0#
0%
#790000000
0!
#795000000
1!
b10 $
#800000000
0!
#805000000
1!
b0 $
1#
1%
#810000000
0!
#815000000
1!
b1 $
b1100 7
sFP )
0#
0%
#820000000
0!
#825000000
1!
b10 $
#830000000
0!
#835000000
1!
b0 $
1#
1%
#840000000
0!
#845000000
1!
b1 $
b1101 7
0#
0%
#850000000
0!
#855000000
1!
b10 $
#860000000
0!
#865000000
1!
b0 $
1#
1%
#870000000
0!
#875000000
1!
b1 $
b1110 7
sSYNC )
0#
12
0%
#880000000
0!
#885000000
1!
b10 $
#890000000
0!
#895000000
1!
b0 $
1#
1%
#900000000
0!
#905000000
1!
b1 $
b1111 7
16
0#
1'
0%
1&
0'
0&
#910000000
0!
#915000000
1!
b10 $
#920000000
0!
#925000000
1!
b0 $
1#
1%
1'
1&
#930000000
0!
#935000000
1!
b1 $
b10 9
b0 7
sBP )
06
0#
sACTIVE *
02
0'
0%
0&
#940000000
0!
#945000000
1!
b10 $
#950000000
0!
#955000000
1!
b0 $
1#
1%
#960000000
0!
#965000000
1!
b1 $
b1 7
0#
0%
#970000000
0!
#975000000
1!
b10 $
#980000000
0!
#985000000
1!
b0 $
1#
1%
#990000000
0!
#995000000
1!
b1 $
b10 7
sACTIVE )
0#
1(
0%
b101110101100 -
#1000000000
0!
#1005000000
1!
b10 $
#1010000000
0!
#1015000000
1!
b0 $
1#
1%
1,
#1020000000
0!
#1025000000
1!
b1 $
b11 7
0#
0%
0,
04
b111011011111 .
b1111 /
b1101 0
b1110 1
b111011011111 -
14
#1030000000
0!
#1035000000
1!
b10 $
#1040000000
0!
#1045000000
1!
b0 $
1#
1%
1,
#1050000000
0!
#1055000000
1!
b1 $
b100 7
0#
0%
0,
04
b1000010011 .
b11 /
b1 0
b10 1
b1000010011 -
14
#1060000000
0!
#1065000000
1!
b10 $
#1070000000
0!
#1075000000
1!
b0 $
1#
1%
1,
#1080000000
0!
#1085000000
1!
b1 $
b101 7
0#
0%
0,
04
b10101000110 .
b110 /
b100 0
b101 1
b10101000110 -
14
#1090000000
0!
#1095000000
1!
b10 $
#1100000000
0!
#1105000000
1!
b0 $
1#
1%
1,
#1110000000
0!
#1115000000
1!
b1 $
b110 7
0#
0%
0,
04
#1120000000
0!
#1125000000
1!
b10 $
#1130000000
0!
#1135000000
1!
b0 $
1#
1%
1,
#1140000000
0!
#1145000000
1!
b1 $
b111 7
0#
0%
0,
#1150000000
0!
#1155000000
1!
b10 $
#1160000000
0!
#1165000000
1!
b0 $
1#
1%
1,
#1170000000
0!
#1175000000
1!
b1 $
b1000 7
0#
0%
0,
#1180000000
0!
#1185000000
1!
b10 $
#1190000000
0!
#1195000000
1!
b0 $
1#
1%
1,
#1200000000
0!
#1205000000
1!
b1 $
b1001 7
0#
0%
0,
#1210000000
0!
#1215000000
1!
b10 $
#1220000000
0!
#1225000000
1!
b0 $
1#
1%
1,
#1230000000
0!
#1235000000
1!
b1 $
b1010 7
0#
0%
0,
#1240000000
0!
#1245000000
1!
b10 $
#1250000000
0!
#1255000000
1!
b0 $
1#
1%
1,
#1260000000
0!
#1265000000
1!
b1 $
b1011 7
0#
0%
0,
#1270000000
0!
#1275000000
1!
b10 $
#1280000000
0!
#1285000000
1!
b0 $
1#
1%
1,
#1290000000
0!
#1295000000
1!
b1 $
b1100 7
sFP )
0#
0(
0%
0,
b0 -
#1300000000
0!
#1305000000
1!
b10 $
#1310000000
0!
#1315000000
1!
b0 $
1#
1%
#1320000000
0!
#1325000000
1!
b1 $
b1101 7
0#
0%
#1330000000
0!
#1335000000
1!
b10 $
#1340000000
0!
#1345000000
1!
b0 $
1#
1%
#1350000000
0!
#1355000000
1!
b1 $
b1110 7
sSYNC )
0#
12
0%
#1360000000
0!
#1365000000
1!
b10 $
#1370000000
0!
#1375000000
1!
b0 $
1#
1%
#1380000000
0!
#1385000000
1!
b1 $
b1111 7
16
0#
1'
0%
1&
0'
0&
#1390000000
0!
#1395000000
1!
b10 $
#1400000000
0!
#1405000000
1!
b0 $
1#
1%
1'
1&
#1410000000
0!
#1415000000
1!
b1 $
b11 9
b0 7
sBP )
06
0#
02
0'
0%
0&
#1420000000
0!
#1425000000
1!
b10 $
#1430000000
0!
#1435000000
1!
b0 $
1#
1%
#1440000000
0!
#1445000000
1!
b1 $
b1 7
0#
0%
#1450000000
0!
#1455000000
1!
b10 $
#1460000000
0!
#1465000000
1!
b0 $
1#
1%
#1470000000
0!
#1475000000
1!
b1 $
b10 7
sACTIVE )
0#
1(
0%
b10101000110 -
#1480000000
0!
#1485000000
1!
b10 $
#1490000000
0!
#1495000000
1!
b0 $
1#
1%
1,
#1500000000
0!
#1505000000
1!
b1 $
b11 7
0#
0%
0,
#1510000000
0!
#1515000000
1!
b10 $
#1520000000
0!
#1525000000
1!
b0 $
1#
1%
1,
#1530000000
0!
#1535000000
1!
b1 $
b100 7
0#
0%
0,
#1540000000
0!
#1545000000
1!
b10 $
#1550000000
0!
#1555000000
1!
b0 $
1#
1%
1,
#1560000000
0!
#1565000000
1!
b1 $
b101 7
0#
0%
0,
#1570000000
0!
#1575000000
1!
b10 $
#1580000000
0!
#1585000000
1!
b0 $
1#
1%
1,
#1590000000
0!
#1595000000
1!
b1 $
b110 7
0#
0%
0,
#1600000000
0!
#1605000000
1!
b10 $
#1610000000
0!
#1615000000
1!
b0 $
1#
1%
1,
#1620000000
0!
#1625000000
1!
b1 $
b111 7
0#
0%
0,
#1630000000
0!
#1635000000
1!
b10 $
#1640000000
0!
#1645000000
1!
b0 $
1#
1%
1,
#1650000000
0!
#1655000000
1!
b1 $
b1000 7
0#
0%
0,
#1660000000
0!
#1665000000
1!
b10 $
#1670000000
0!
#1675000000
1!
b0 $
1#
1%
1,
#1680000000
0!
#1685000000
1!
b1 $
b1001 7
0#
0%
0,
#1690000000
0!
#1695000000
1!
b10 $
#1700000000
0!
#1705000000
1!
b0 $
1#
1%
1,
#1710000000
0!
#1715000000
1!
b1 $
b1010 7
0#
0%
0,
#1720000000
0!
#1725000000
1!
b10 $
#1730000000
0!
#1735000000
1!
b0 $
1#
1%
1,
#1740000000
0!
#1745000000
1!
b1 $
b1011 7
0#
0%
0,
#1750000000
0!
#1755000000
1!
b10 $
#1760000000
0!
#1765000000
1!
b0 $
1#
1%
1,
#1770000000
0!
#1775000000
1!
b1 $
b1100 7
sFP )
0#
0(
0%
0,
b0 -
#1780000000
0!
#1785000000
1!
b10 $
#1790000000
0!
#1795000000
1!
b0 $
1#
1%
#1800000000
0!
#1805000000
1!
b1 $
b1101 7
0#
0%
#1810000000
0!
#1815000000
1!
b10 $
#1820000000
0!
#1825000000
1!
b0 $
1#
1%
#1830000000
0!
#1835000000
1!
b1 $
b1110 7
sSYNC )
0#
12
0%
#1840000000
0!
#1845000000
1!
b10 $
#1850000000
0!
#1855000000
1!
b0 $
1#
1%
#1860000000
0!
#1865000000
1!
b1 $
b1111 7
16
0#
1'
0%
1&
0'
0&
#1870000000
0!
#1875000000
1!
b10 $
#1880000000
0!
#1885000000
1!
b0 $
1#
1%
1'
1&
#1890000000
0!
#1895000000
1!
b1 $
b100 9
b0 7
sBP )
06
0#
02
0'
0%
0&
#1900000000
0!
#1905000000
1!
b10 $
#1910000000
0!
#1915000000
1!
b0 $
1#
1%
#1920000000
0!
#1925000000
1!
b1 $
b1 7
0#
0%
#1930000000
0!
#1935000000
1!
b10 $
#1940000000
0!
#1945000000
1!
b0 $
1#
1%
#1950000000
0!
#1955000000
1!
b1 $
b10 7
sACTIVE )
0#
1(
0%
b10101000110 -
#1960000000
0!
#1965000000
1!
b10 $
#1970000000
0!
#1975000000
1!
b0 $
1#
1%
1,
#1980000000
0!
#1985000000
1!
b1 $
b11 7
0#
0%
0,
#1990000000
0!
#1995000000
1!
b10 $
#2000000000
0!
#2005000000
1!
b0 $
1#
1%
1,
#2010000000
0!
#2015000000
1!
b1 $
b100 7
0#
0%
0,
#2020000000
0!
#2025000000
1!
b10 $
#2030000000
0!
#2035000000
1!
b0 $
1#
1%
1,
#2040000000
0!
#2045000000
1!
b1 $
b101 7
0#
0%
0,
#2050000000
0!
#2055000000
1!
b10 $
#2060000000
0!
#2065000000
1!
b0 $
1#
1%
1,
#2070000000
0!
#2075000000
1!
b1 $
b110 7
0#
0%
0,
#2080000000
0!
#2085000000
1!
b10 $
#2090000000
0!
#2095000000
1!
b0 $
1#
1%
1,
#2100000000
0!
#2105000000
1!
b1 $
b111 7
0#
0%
0,
#2110000000
0!
#2115000000
1!
b10 $
#2120000000
0!
#2125000000
1!
b0 $
1#
1%
1,
#2130000000
0!
#2135000000
1!
b1 $
b1000 7
0#
0%
0,
#2140000000
0!
#2145000000
1!
b10 $
#2150000000
0!
#2155000000
1!
b0 $
1#
1%
1,
#2160000000
0!
#2165000000
1!
b1 $
b1001 7
0#
0%
0,
#2170000000
0!
#2175000000
1!
b10 $
#2180000000
0!
#2185000000
1!
b0 $
1#
1%
1,
#2190000000
0!
#2195000000
1!
b1 $
b1010 7
0#
0%
0,
#2200000000
0!
#2205000000
1!
b10 $
#2210000000
0!
#2215000000
1!
b0 $
1#
1%
1,
#2220000000
0!
#2225000000
1!
b1 $
b1011 7
0#
0%
0,
#2230000000
0!
#2235000000
1!
b10 $
#2240000000
0!
#2245000000
1!
b0 $
1#
1%
1,
#2250000000
0!
#2255000000
1!
b1 $
b1100 7
sFP )
0#
0(
0%
0,
b0 -
#2260000000
0!
#2265000000
1!
b10 $
#2270000000
0!
#2275000000
1!
b0 $
1#
1%
#2280000000
0!
#2285000000
1!
b1 $
b1101 7
0#
0%
#2290000000
0!
#2295000000
1!
b10 $
#2300000000
0!
#2305000000
1!
b0 $
1#
1%
#2310000000
0!
#2315000000
1!
b1 $
b1110 7
sSYNC )
0#
12
0%
#2320000000
0!
#2325000000
1!
b10 $
#2330000000
0!
#2335000000
1!
b0 $
1#
1%
#2340000000
0!
#2345000000
1!
b1 $
b1111 7
16
0#
1'
0%
1&
0'
0&
#2350000000
0!
#2355000000
1!
b10 $
#2360000000
0!
#2365000000
1!
b0 $
1#
1%
1'
1&
#2370000000
0!
#2375000000
1!
b1 $
b101 9
b0 7
sBP )
06
0#
02
0'
0%
0&
#2380000000
0!
#2385000000
1!
b10 $
#2390000000
0!
#2395000000
1!
b0 $
1#
1%
#2400000000
0!
#2405000000
1!
b1 $
b1 7
0#
0%
#2410000000
0!
#2415000000
1!
b10 $
#2420000000
0!
#2425000000
1!
b0 $
1#
1%
#2430000000
0!
#2435000000
1!
b1 $
b10 7
sACTIVE )
0#
1(
0%
b10101000110 -
#2440000000
0!
#2445000000
1!
b10 $
#2450000000
0!
#2455000000
1!
b0 $
1#
1%
1,
#2460000000
0!
#2465000000
1!
b1 $
b11 7
0#
0%
0,
#2470000000
0!
#2475000000
1!
b10 $
#2480000000
0!
#2485000000
1!
b0 $
1#
1%
1,
#2490000000
0!
#2495000000
1!
b1 $
b100 7
0#
0%
0,
#2500000000
0!
#2505000000
1!
b10 $
#2510000000
0!
#2515000000
1!
b0 $
1#
1%
1,
#2520000000
0!
#2525000000
1!
b1 $
b101 7
0#
0%
0,
#2530000000
0!
#2535000000
1!
b10 $
#2540000000
0!
#2545000000
1!
b0 $
1#
1%
1,
#2550000000
0!
#2555000000
1!
b1 $
b110 7
0#
0%
0,
#2560000000
0!
#2565000000
1!
b10 $
#2570000000
0!
#2575000000
1!
b0 $
1#
1%
1,
#2580000000
0!
#2585000000
1!
b1 $
b111 7
0#
0%
0,
#2590000000
0!
#2595000000
1!
b10 $
#2600000000
0!
#2605000000
1!
b0 $
1#
1%
1,
#2610000000
0!
#2615000000
1!
b1 $
b1000 7
0#
0%
0,
#2620000000
0!
#2625000000
1!
b10 $
#2630000000
0!
#2635000000
1!
b0 $
1#
1%
1,
#2640000000
0!
#2645000000
1!
b1 $
b1001 7
0#
0%
0,
#2650000000
0!
#2655000000
1!
b10 $
#2660000000
0!
#2665000000
1!
b0 $
1#
1%
1,
#2670000000
0!
#2675000000
1!
b1 $
b1010 7
0#
0%
0,
#2680000000
0!
#2685000000
1!
b10 $
#2690000000
0!
#2695000000
1!
b0 $
1#
1%
1,
#2700000000
0!
#2705000000
1!
b1 $
b1011 7
0#
0%
0,
#2710000000
0!
#2715000000
1!
b10 $
#2720000000
0!
#2725000000
1!
b0 $
1#
1%
1,
#2730000000
0!
#2735000000
1!
b1 $
b1100 7
sFP )
0#
0(
0%
0,
b0 -
#2740000000
0!
#2745000000
1!
b10 $
#2750000000
0!
#2755000000
1!
b0 $
1#
1%
#2760000000
0!
#2765000000
1!
b1 $
b1101 7
0#
0%
#2770000000
0!
#2775000000
1!
b10 $
#2780000000
0!
#2785000000
1!
b0 $
1#
1%
#2790000000
0!
#2795000000
1!
b1 $
b1110 7
sSYNC )
0#
12
0%
#2800000000
0!
#2805000000
1!
b10 $
#2810000000
0!
#2815000000
1!
b0 $
1#
1%
#2820000000
0!
#2825000000
1!
b1 $
b1111 7
16
0#
1'
0%
1&
0'
0&
#2830000000
0!
#2835000000
1!
b10 $
#2840000000
0!
#2845000000
1!
b0 $
1#
1%
1'
1&
#2850000000
0!
#2855000000
1!
b1 $
b110 9
b0 7
sBP )
06
0#
02
0'
0%
0&
#2860000000
0!
#2865000000
1!
b10 $
#2870000000
0!
#2875000000
1!
b0 $
1#
1%
#2880000000
0!
#2885000000
1!
b1 $
b1 7
0#
0%
#2890000000
0!
#2895000000
1!
b10 $
#2900000000
0!
#2905000000
1!
b0 $
1#
1%
#2910000000
0!
#2915000000
1!
b1 $
b10 7
sACTIVE )
0#
1(
0%
b10101000110 -
#2920000000
0!
#2925000000
1!
b10 $
#2930000000
0!
#2935000000
1!
b0 $
1#
1%
1,
#2940000000
0!
#2945000000
1!
b1 $
b11 7
0#
0%
0,
#2950000000
0!
#2955000000
1!
b10 $
#2960000000
0!
#2965000000
1!
b0 $
1#
1%
1,
#2970000000
0!
#2975000000
1!
b1 $
b100 7
0#
0%
0,
#2980000000
0!
#2985000000
1!
b10 $
#2990000000
0!
#2995000000
1!
b0 $
1#
1%
1,
#3000000000
0!
#3005000000
1!
b1 $
b101 7
0#
0%
0,
#3010000000
0!
#3015000000
1!
b10 $
#3020000000
0!
#3025000000
1!
b0 $
1#
1%
1,
#3030000000
0!
#3035000000
1!
b1 $
b110 7
0#
0%
0,
#3040000000
0!
#3045000000
1!
b10 $
#3050000000
0!
#3055000000
1!
b0 $
1#
1%
1,
#3060000000
0!
#3065000000
1!
b1 $
b111 7
0#
0%
0,
#3070000000
0!
#3075000000
1!
b10 $
#3080000000
0!
#3085000000
1!
b0 $
1#
1%
1,
#3090000000
0!
#3095000000
1!
b1 $
b1000 7
0#
0%
0,
#3100000000
0!
#3105000000
1!
b10 $
#3110000000
0!
#3115000000
1!
b0 $
1#
1%
1,
#3120000000
0!
#3125000000
1!
b1 $
b1001 7
0#
0%
0,
#3130000000
0!
#3135000000
1!
b10 $
#3140000000
0!
#3145000000
1!
b0 $
1#
1%
1,
#3150000000
0!
#3155000000
1!
b1 $
b1010 7
0#
0%
0,
#3160000000
0!
#3165000000
1!
b10 $
#3170000000
0!
#3175000000
1!
b0 $
1#
1%
1,
#3180000000
0!
#3185000000
1!
b1 $
b1011 7
0#
0%
0,
#3190000000
0!
#3195000000
1!
b10 $
#3200000000
0!
#3205000000
1!
b0 $
1#
1%
1,
#3210000000
0!
#3215000000
1!
b1 $
b1100 7
sFP )
0#
0(
0%
0,
b0 -
#3220000000
0!
#3225000000
1!
b10 $
#3230000000
0!
#3235000000
1!
b0 $
1#
1%
#3240000000
0!
#3245000000
1!
b1 $
b1101 7
0#
0%
#3250000000
0!
#3255000000
1!
b10 $
#3260000000
0!
#3265000000
1!
b0 $
1#
1%
#3270000000
0!
#3275000000
1!
b1 $
b1110 7
sSYNC )
0#
12
0%
#3280000000
0!
#3285000000
1!
b10 $
#3290000000
0!
#3295000000
1!
b0 $
1#
1%
#3300000000
0!
#3305000000
1!
b1 $
b1111 7
16
0#
1'
0%
1&
0'
0&
#3310000000
0!
#3315000000
1!
b10 $
#3320000000
0!
#3325000000
1!
b0 $
1#
1%
1'
1&
#3330000000
0!
#3335000000
1!
b1 $
b111 9
b0 7
sBP )
06
0#
02
0'
0%
0&
#3340000000
0!
#3345000000
1!
b10 $
#3350000000
0!
#3355000000
1!
b0 $
1#
1%
#3360000000
0!
#3365000000
1!
b1 $
b1 7
0#
0%
#3370000000
0!
#3375000000
1!
b10 $
#3380000000
0!
#3385000000
1!
b0 $
1#
1%
#3390000000
0!
#3395000000
1!
b1 $
b10 7
sACTIVE )
0#
1(
0%
b10101000110 -
#3400000000
0!
#3405000000
1!
b10 $
#3410000000
0!
#3415000000
1!
b0 $
1#
1%
1,
#3420000000
0!
#3425000000
1!
b1 $
b11 7
0#
0%
0,
#3430000000
0!
#3435000000
1!
b10 $
#3440000000
0!
#3445000000
1!
b0 $
1#
1%
1,
#3450000000
0!
#3455000000
1!
b1 $
b100 7
0#
0%
0,
#3460000000
0!
#3465000000
1!
b10 $
#3470000000
0!
#3475000000
1!
b0 $
1#
1%
1,
#3480000000
0!
#3485000000
1!
b1 $
b101 7
0#
0%
0,
#3490000000
0!
#3495000000
1!
b10 $
#3500000000
0!
#3505000000
1!
b0 $
1#
1%
1,
#3510000000
0!
#3515000000
1!
b1 $
b110 7
0#
0%
0,
#3520000000
0!
#3525000000
1!
b10 $
#3530000000
0!
#3535000000
1!
b0 $
1#
1%
1,
#3540000000
0!
#3545000000
1!
b1 $
b111 7
0#
0%
0,
#3550000000
0!
#3555000000
1!
b10 $
#3560000000
0!
#3565000000
1!
b0 $
1#
1%
1,
#3570000000
0!
#3575000000
1!
b1 $
b1000 7
0#
0%
0,
#3580000000
0!
#3585000000
1!
b10 $
#3590000000
0!
#3595000000
1!
b0 $
1#
1%
1,
#3600000000
0!
#3605000000
1!
b1 $
b1001 7
0#
0%
0,
#3610000000
0!
#3615000000
1!
b10 $
#3620000000
0!
#3625000000
1!
b0 $
1#
1%
1,
#3630000000
0!
#3635000000
1!
b1 $
b1010 7
0#
0%
0,
#3640000000
0!
#3645000000
1!
b10 $
#3650000000
0!
#3655000000
1!
b0 $
1#
1%
1,
#3660000000
0!
#3665000000
1!
b1 $
b1011 7
0#
0%
0,
#3670000000
0!
#3675000000
1!
b10 $
#3680000000
0!
#3685000000
1!
b0 $
1#
1%
1,
#3690000000
0!
#3695000000
1!
b1 $
b1100 7
sFP )
0#
0(
0%
0,
b0 -
#3700000000
0!
#3705000000
1!
b10 $
#3710000000
0!
#3715000000
1!
b0 $
1#
1%
#3720000000
0!
#3725000000
1!
b1 $
b1101 7
0#
0%
#3730000000
0!
#3735000000
1!
b10 $
#3740000000
0!
#3745000000
1!
b0 $
1#
1%
#3750000000
0!
#3755000000
1!
b1 $
b1110 7
sSYNC )
0#
12
0%
#3760000000
0!
#3765000000
1!
b10 $
#3770000000
0!
#3775000000
1!
b0 $
1#
1%
#3780000000
0!
#3785000000
1!
b1 $
b1111 7
16
0#
1'
0%
1&
0'
0&
#3790000000
0!
#3795000000
1!
b10 $
#3800000000
0!
#3805000000
1!
b0 $
1#
1%
1'
1&
#3810000000
0!
#3815000000
1!
b1 $
b1000 9
b0 7
sBP )
06
0#
02
0'
0%
0&
#3820000000
0!
#3825000000
1!
b10 $
#3830000000
0!
#3835000000
1!
b0 $
1#
1%
#3840000000
0!
#3845000000
1!
b1 $
b1 7
0#
0%
#3850000000
0!
#3855000000
1!
b10 $
#3860000000
0!
#3865000000
1!
b0 $
1#
1%
#3870000000
0!
#3875000000
1!
b1 $
b10 7
sACTIVE )
0#
1(
0%
b10101000110 -
#3880000000
0!
#3885000000
1!
b10 $
#3890000000
0!
#3895000000
1!
b0 $
1#
1%
1,
#3900000000
0!
#3905000000
1!
b1 $
b11 7
0#
0%
0,
#3910000000
0!
#3915000000
1!
b10 $
#3920000000
0!
#3925000000
1!
b0 $
1#
1%
1,
#3930000000
0!
#3935000000
1!
b1 $
b100 7
0#
0%
0,
#3940000000
0!
#3945000000
1!
b10 $
#3950000000
0!
#3955000000
1!
b0 $
1#
1%
1,
#3960000000
0!
#3965000000
1!
b1 $
b101 7
0#
0%
0,
#3970000000
0!
#3975000000
1!
b10 $
#3980000000
0!
#3985000000
1!
b0 $
1#
1%
1,
#3990000000
0!
#3995000000
1!
b1 $
b110 7
0#
0%
0,
#4000000000
0!
#4005000000
1!
b10 $
#4010000000
0!
#4015000000
1!
b0 $
1#
1%
1,
#4020000000
0!
#4025000000
1!
b1 $
b111 7
0#
0%
0,
#4030000000
0!
#4035000000
1!
b10 $
#4040000000
0!
#4045000000
1!
b0 $
1#
1%
1,
#4050000000
0!
#4055000000
1!
b1 $
b1000 7
0#
0%
0,
#4060000000
0!
#4065000000
1!
b10 $
#4070000000
0!
#4075000000
1!
b0 $
1#
1%
1,
#4080000000
0!
#4085000000
1!
b1 $
b1001 7
0#
0%
0,
#4090000000
0!
#4095000000
1!
b10 $
#4100000000
0!
#4105000000
1!
b0 $
1#
1%
1,
#4110000000
0!
#4115000000
1!
b1 $
b1010 7
0#
0%
0,
#4120000000
0!
#4125000000
1!
b10 $
#4130000000
0!
#4135000000
1!
b0 $
1#
1%
1,
#4140000000
0!
#4145000000
1!
b1 $
b1011 7
0#
0%
0,
#4150000000
0!
#4155000000
1!
b10 $
#4160000000
0!
#4165000000
1!
b0 $
1#
1%
1,
#4170000000
0!
#4175000000
1!
b1 $
b1100 7
sFP )
0#
0(
0%
0,
b0 -
#4180000000
0!
#4185000000
1!
b10 $
#4190000000
0!
#4195000000
1!
b0 $
1#
1%
#4200000000
0!
#4205000000
1!
b1 $
b1101 7
0#
0%
#4210000000
0!
#4215000000
1!
b10 $
#4220000000
0!
#4225000000
1!
b0 $
1#
1%
#4230000000
0!
#4235000000
1!
b1 $
b1110 7
sSYNC )
0#
12
0%
#4240000000
0!
#4245000000
1!
b10 $
#4250000000
0!
#4255000000
1!
b0 $
1#
1%
#4260000000
0!
#4265000000
1!
b1 $
b1111 7
16
0#
1'
0%
1&
0'
0&
#4270000000
0!
#4275000000
1!
b10 $
#4280000000
0!
#4285000000
1!
b0 $
1#
1%
1'
1&
#4290000000
0!
#4295000000
1!
b1 $
b1001 9
b0 7
sBP )
06
0#
02
0'
0%
0&
#4300000000
0!
#4305000000
1!
b10 $
#4310000000
0!
#4315000000
1!
b0 $
1#
1%
#4320000000
0!
#4325000000
1!
b1 $
b1 7
0#
0%
#4330000000
0!
#4335000000
1!
b10 $
#4340000000
0!
#4345000000
1!
b0 $
1#
1%
#4350000000
0!
#4355000000
1!
b1 $
b10 7
sACTIVE )
0#
1(
0%
b10101000110 -
#4360000000
0!
#4365000000
1!
b10 $
#4370000000
0!
#4375000000
1!
b0 $
1#
1%
1,
#4380000000
0!
#4385000000
1!
b1 $
b11 7
0#
0%
0,
#4390000000
0!
#4395000000
1!
b10 $
#4400000000
0!
#4405000000
1!
b0 $
1#
1%
1,
#4410000000
0!
#4415000000
1!
b1 $
b100 7
0#
0%
0,
#4420000000
0!
#4425000000
1!
b10 $
#4430000000
0!
#4435000000
1!
b0 $
1#
1%
1,
#4440000000
0!
#4445000000
1!
b1 $
b101 7
0#
0%
0,
#4450000000
0!
#4455000000
1!
b10 $
#4460000000
0!
#4465000000
1!
b0 $
1#
1%
1,
#4470000000
0!
#4475000000
1!
b1 $
b110 7
0#
0%
0,
#4480000000
0!
#4485000000
1!
b10 $
#4490000000
0!
#4495000000
1!
b0 $
1#
1%
1,
#4500000000
0!
#4505000000
1!
b1 $
b111 7
0#
0%
0,
#4510000000
0!
#4515000000
1!
b10 $
#4520000000
0!
#4525000000
1!
b0 $
1#
1%
1,
#4530000000
0!
#4535000000
1!
b1 $
b1000 7
0#
0%
0,
#4540000000
0!
#4545000000
1!
b10 $
#4550000000
0!
